EESchema Schematic File Version 2  date Vi 28 sep 2012 13:02:21 +0300
LIBS:power
LIBS:device
LIBS:transistors
LIBS:conn
LIBS:linear
LIBS:regul
LIBS:74xx
LIBS:cmos4000
LIBS:adc-dac
LIBS:memory
LIBS:xilinx
LIBS:special
LIBS:microcontrollers
LIBS:dsp
LIBS:microchip
LIBS:analog_switches
LIBS:motorola
LIBS:texas
LIBS:intel
LIBS:audio
LIBS:interface
LIBS:digital-audio
LIBS:philips
LIBS:display
LIBS:cypress
LIBS:siliconi
LIBS:opto
LIBS:atmel
LIBS:contrib
LIBS:valves
LIBS:stm32f10xx8
LIBS:bd9134muv
LIBS:vbus053cz-haf
LIBS:con-hirose
LIBS:pinhead
LIBS:relay
LIBS:uln-udn
LIBS:ap1117
LIBS:borniers
LIBS:mos_p_my
LIBS:CNCIndexer-cache
EELAYER 25  0
EELAYER END
$Descr A4 11700 8267
encoding utf-8
Sheet 1 1
Title "3-axis CNC indexer"
Date "28 sep 2012"
Rev "C"
Comp ""
Comment1 ""
Comment2 ""
Comment3 ""
Comment4 ""
$EndDescr
Wire Wire Line
	1700 3450 1700 2600
Connection ~ 1700 3450
Wire Wire Line
	1700 2600 1800 2600
Connection ~ 1750 3550
Wire Wire Line
	1750 3550 1750 2800
Wire Wire Line
	1750 2800 1800 2800
Wire Wire Line
	2600 6100 2600 6250
Wire Wire Line
	2600 6100 2350 6100
Wire Wire Line
	2700 5900 2700 6050
Wire Wire Line
	2700 5900 2350 5900
Wire Wire Line
	2350 6000 2650 6000
Wire Wire Line
	10200 5650 10200 5600
Wire Wire Line
	10200 5600 10450 5600
Wire Wire Line
	8400 4050 8200 4050
Wire Wire Line
	6300 5350 6300 4850
Wire Wire Line
	6300 5350 5400 5350
Wire Wire Line
	5400 5350 5400 5100
Wire Wire Line
	5400 5100 4950 5100
Wire Wire Line
	6200 4400 6200 4950
Wire Wire Line
	6200 4400 5100 4400
Wire Wire Line
	5100 4400 5100 4900
Wire Wire Line
	5100 4900 4950 4900
Wire Wire Line
	5250 4700 5250 4850
Wire Wire Line
	5250 4700 4950 4700
Wire Wire Line
	6000 4750 6350 4750
Wire Wire Line
	7900 6050 7400 6050
Wire Wire Line
	7400 6050 7400 6200
Wire Wire Line
	7400 6200 7150 6200
Wire Wire Line
	7900 6250 7400 6250
Wire Wire Line
	7400 6250 7400 6300
Wire Wire Line
	7400 6300 7150 6300
Wire Wire Line
	8200 6050 8550 6050
Wire Wire Line
	8500 5700 8500 6150
Wire Wire Line
	8500 5700 7200 5700
Wire Wire Line
	7200 5700 7200 5900
Wire Wire Line
	7200 5900 7150 5900
Connection ~ 8650 4800
Wire Wire Line
	8650 4900 8650 4600
Wire Wire Line
	7750 4800 7350 4800
Wire Wire Line
	4950 3050 4550 3050
Wire Notes Line
	4350 4250 9050 4250
Wire Notes Line
	4350 4250 4350 2700
Wire Notes Line
	4350 2700 3500 2700
Wire Notes Line
	3500 2700 3500 550 
Wire Wire Line
	3050 3250 3050 3650
Wire Wire Line
	4550 3450 4950 3450
Connection ~ 8850 5800
Wire Wire Line
	8850 5800 9000 5800
Wire Wire Line
	9350 6850 9500 6850
Wire Wire Line
	9350 6850 9350 6750
Wire Wire Line
	9350 6550 9750 6550
Connection ~ 9000 6400
Connection ~ 8850 6550
Wire Wire Line
	9000 6300 9000 6400
Wire Wire Line
	8650 6000 8650 5950
Wire Wire Line
	8650 5950 8200 5950
Wire Wire Line
	7700 6550 8850 6550
Wire Wire Line
	8200 6250 8400 6250
Wire Wire Line
	8500 6150 8200 6150
Wire Wire Line
	7900 6150 7450 6150
Wire Bus Line
	5450 5900 5450 6400
Wire Wire Line
	5450 6300 5750 6300
Wire Wire Line
	5450 6100 5750 6100
Wire Wire Line
	5450 5900 5750 5900
Wire Wire Line
	8450 6350 8450 6400
Wire Wire Line
	8450 6350 8200 6350
Wire Wire Line
	7900 5950 7550 5950
Wire Wire Line
	7700 6550 7700 6350
Wire Wire Line
	7700 6350 7900 6350
Wire Wire Line
	5450 6000 5750 6000
Wire Wire Line
	5450 6200 5750 6200
Wire Wire Line
	5450 6400 5750 6400
Wire Wire Line
	5750 6600 5750 6750
Connection ~ 5750 6700
Wire Wire Line
	8450 6400 9000 6400
Wire Wire Line
	8850 6550 8850 6300
Wire Wire Line
	9750 6400 9500 6400
Wire Wire Line
	9500 6400 9500 6650
Connection ~ 9350 6550
Connection ~ 9500 6400
Wire Wire Line
	9500 6850 9500 6900
Connection ~ 9500 6850
Wire Wire Line
	3700 6750 3700 6150
Connection ~ 4700 6850
Wire Wire Line
	4700 6900 4700 6850
Connection ~ 4700 6400
Connection ~ 4550 6550
Wire Wire Line
	4700 6650 4700 6400
Wire Wire Line
	4700 6400 4950 6400
Wire Wire Line
	4050 6300 4050 6550
Wire Wire Line
	3650 6400 4200 6400
Wire Wire Line
	3700 6750 2500 6750
Wire Wire Line
	2500 6750 2500 6300
Wire Wire Line
	2500 6300 2350 6300
Wire Wire Line
	3400 6050 3800 6050
Wire Wire Line
	3800 6050 3800 6800
Wire Wire Line
	3800 6800 2550 6800
Wire Wire Line
	2550 6800 2550 6200
Wire Wire Line
	2550 6200 2350 6200
Wire Wire Line
	2600 6250 3100 6250
Connection ~ 950  6700
Wire Wire Line
	950  6600 950  6750
Wire Wire Line
	650  6400 950  6400
Wire Wire Line
	650  6200 950  6200
Wire Wire Line
	650  6000 950  6000
Wire Wire Line
	3100 6350 2900 6350
Wire Wire Line
	2900 6350 2900 6550
Wire Wire Line
	3100 5950 2750 5950
Wire Wire Line
	3400 6350 3650 6350
Wire Wire Line
	3650 6350 3650 6400
Wire Wire Line
	650  5900 950  5900
Wire Wire Line
	650  6100 950  6100
Wire Wire Line
	650  6300 950  6300
Wire Bus Line
	650  5900 650  6400
Wire Wire Line
	2650 6000 2650 6150
Wire Wire Line
	2650 6150 3100 6150
Wire Wire Line
	3700 6150 3400 6150
Wire Wire Line
	2350 6400 2450 6400
Wire Wire Line
	2450 6400 2450 6700
Wire Wire Line
	2450 6700 3600 6700
Wire Wire Line
	3600 6700 3600 6250
Wire Wire Line
	3600 6250 3400 6250
Wire Wire Line
	2900 6550 4050 6550
Wire Wire Line
	3400 5950 3850 5950
Wire Wire Line
	3850 5950 3850 6000
Wire Wire Line
	4200 6400 4200 6300
Connection ~ 4050 6550
Connection ~ 4200 6400
Wire Wire Line
	4550 6550 4950 6550
Wire Wire Line
	4550 6750 4550 6850
Wire Wire Line
	4550 6850 4700 6850
Wire Wire Line
	4050 5800 4200 5800
Connection ~ 4050 5800
Connection ~ 6650 4500
Wire Wire Line
	6650 4500 6800 4500
Wire Wire Line
	7150 5550 7300 5550
Wire Wire Line
	7150 5550 7150 5450
Wire Wire Line
	7150 5250 7550 5250
Connection ~ 6800 5100
Connection ~ 6650 5250
Wire Wire Line
	6800 5000 6800 5100
Wire Wire Line
	6450 4700 6450 4650
Wire Wire Line
	6450 4650 6000 4650
Wire Wire Line
	5500 5250 6650 5250
Wire Wire Line
	6200 4950 6000 4950
Wire Wire Line
	6300 4850 6000 4850
Wire Wire Line
	5250 4850 5700 4850
Wire Bus Line
	3250 4600 3250 5100
Wire Wire Line
	3250 5000 3550 5000
Wire Wire Line
	3250 4800 3550 4800
Wire Wire Line
	3250 4600 3550 4600
Wire Bus Line
	10000 1200 10000 1100
Wire Wire Line
	3300 3050 3300 3000
Wire Wire Line
	3300 3000 3200 3000
Wire Wire Line
	9200 4650 9500 4650
Wire Wire Line
	9500 4650 9500 4800
Wire Wire Line
	9500 4800 9700 4800
Wire Wire Line
	1100 2150 1500 2150
Wire Wire Line
	1100 1000 1500 1000
Wire Wire Line
	11050 3800 11050 3900
Wire Wire Line
	11050 4650 11050 4750
Wire Wire Line
	11000 2950 11000 3050
Wire Wire Line
	2050 1150 2050 1400
Wire Wire Line
	2400 950  2050 950 
Wire Wire Line
	4950 3550 4550 3550
Wire Wire Line
	8350 2950 8750 2950
Wire Bus Line
	8850 1650 8850 1750
Wire Wire Line
	8350 1850 8750 1850
Wire Wire Line
	8750 3750 8350 3750
Wire Wire Line
	8750 3550 8350 3550
Wire Wire Line
	6250 5050 6250 5100
Wire Wire Line
	6250 5050 6000 5050
Wire Bus Line
	8850 950  8850 1450
Wire Wire Line
	8350 1250 8750 1250
Wire Wire Line
	8350 1050 8750 1050
Wire Wire Line
	8350 850  8750 850 
Wire Wire Line
	4950 2350 4650 2350
Wire Wire Line
	4650 2350 4650 2050
Wire Wire Line
	4650 2050 4250 2050
Wire Wire Line
	2700 1300 2700 1400
Connection ~ 3100 950 
Wire Wire Line
	3000 950  3200 950 
Wire Wire Line
	2250 1350 2250 1400
Connection ~ 2100 950 
Wire Wire Line
	2100 850  2100 950 
Wire Wire Line
	9550 3000 9550 2950
Wire Wire Line
	9550 2950 9650 2950
Wire Bus Line
	2900 4750 2900 4550
Wire Wire Line
	2300 4750 2800 4750
Wire Bus Line
	750  4950 750  4750
Wire Wire Line
	1300 4750 850  4750
Wire Wire Line
	1300 5400 1300 5350
Wire Bus Line
	11100 1650 11100 1750
Wire Wire Line
	1200 3350 1650 3350
Wire Wire Line
	1650 3350 1650 2350
Wire Wire Line
	1650 2350 3200 2350
Wire Wire Line
	3200 2350 3200 2600
Wire Wire Line
	1200 3800 1200 3750
Wire Notes Line
	11150 550  9150 550 
Wire Notes Line
	11150 550  11150 2000
Wire Notes Line
	11150 2000 9150 2000
Wire Wire Line
	2750 3900 2750 3950
Wire Notes Line
	1550 2300 3400 2300
Wire Notes Line
	1550 2300 1550 2850
Wire Notes Line
	1550 2850 550  2850
Wire Notes Line
	9150 2000 9150 550 
Wire Wire Line
	11000 1800 10150 1800
Wire Wire Line
	10150 1800 10150 1600
Wire Wire Line
	10150 1600 10350 1600
Wire Wire Line
	10150 1450 10150 1500
Wire Wire Line
	10950 1450 10850 1450
Wire Wire Line
	10850 1450 10850 1500
Wire Wire Line
	10850 1500 10650 1500
Connection ~ 4950 1350
Wire Wire Line
	2600 3650 3200 3650
Wire Wire Line
	9450 1000 9650 1000
Wire Wire Line
	9650 1000 9650 950 
Wire Wire Line
	9450 1200 9900 1200
Wire Wire Line
	4950 3750 4700 3750
Wire Wire Line
	8350 2450 8850 2450
Wire Wire Line
	8350 2150 8800 2150
Wire Wire Line
	4650 1850 4650 1800
Connection ~ 4250 1250
Connection ~ 4250 850 
Connection ~ 4250 2050
Wire Wire Line
	3650 2450 3650 2500
Wire Notes Line
	550  550  3400 550 
Wire Notes Line
	550  550  550  2750
Connection ~ 4950 950 
Wire Wire Line
	4950 800  4950 1050
Wire Wire Line
	4250 2450 4250 2500
Wire Wire Line
	3650 2050 3650 1850
Wire Wire Line
	3650 1850 4250 1850
Wire Wire Line
	4250 1850 4250 1950
Connection ~ 4950 850 
Wire Wire Line
	3650 850  4950 850 
Connection ~ 3950 850 
Connection ~ 3950 1250
Wire Bus Line
	3300 3400 3300 3550
Wire Wire Line
	4350 1400 4850 1400
Wire Wire Line
	4850 1400 4850 1650
Wire Wire Line
	4850 1650 4950 1650
Connection ~ 4650 1400
Wire Wire Line
	4350 1800 4850 1800
Wire Wire Line
	4850 1800 4850 1750
Wire Wire Line
	4850 1750 4950 1750
Connection ~ 4650 1800
Wire Wire Line
	4550 1050 4550 1250
Connection ~ 4550 1250
Wire Wire Line
	8350 2050 8800 2050
Wire Bus Line
	8900 1950 8900 2050
Wire Wire Line
	8350 2250 8850 2250
Wire Wire Line
	4950 3650 4700 3650
Wire Bus Line
	4600 3750 4600 3850
Wire Notes Line
	3500 550  9050 550 
Wire Notes Line
	9050 550  9050 4250
Wire Wire Line
	9450 1300 9900 1300
Wire Wire Line
	9450 1100 9700 1100
Wire Wire Line
	9700 1100 9700 1050
Wire Wire Line
	9700 1050 9800 1050
Wire Wire Line
	3200 3500 2600 3500
Wire Wire Line
	4950 1400 4950 1150
Connection ~ 4950 1250
Wire Wire Line
	4950 1250 3650 1250
Wire Wire Line
	10150 1500 10350 1500
Wire Wire Line
	11000 1600 10650 1600
Wire Wire Line
	4950 2050 4950 2100
Wire Notes Line
	550  2750 1450 2750
Wire Notes Line
	1450 2750 1450 2200
Wire Notes Line
	1450 2200 3400 2200
Wire Notes Line
	3400 2200 3400 550 
Wire Notes Line
	550  2850 550  4250
Connection ~ 2750 3500
Wire Wire Line
	3050 4050 3050 4100
Connection ~ 3050 3650
Wire Wire Line
	4950 3150 4950 3200
Wire Wire Line
	2100 3500 2000 3500
Wire Wire Line
	2000 3500 2000 3450
Wire Wire Line
	2000 3450 1200 3450
Wire Wire Line
	2000 3550 2000 3650
Wire Wire Line
	2000 3550 1200 3550
Wire Wire Line
	2000 3650 2100 3650
Wire Wire Line
	2300 5350 2350 5350
Wire Wire Line
	1300 4650 850  4650
Wire Wire Line
	1300 4850 850  4850
Wire Wire Line
	9150 3250 9650 3250
Wire Wire Line
	2300 4850 2800 4850
Wire Wire Line
	2300 4650 2800 4650
Connection ~ 2250 950 
Wire Wire Line
	3100 1350 3100 1400
Wire Wire Line
	4500 2650 4950 2650
Wire Wire Line
	4250 1950 4750 1950
Wire Wire Line
	4750 1950 4750 2250
Wire Wire Line
	4750 2250 4950 2250
Wire Wire Line
	4500 2550 4950 2550
Wire Wire Line
	4500 2750 4950 2750
Wire Bus Line
	4400 2650 4400 2850
Wire Wire Line
	9200 4100 9700 4100
Wire Wire Line
	9700 3800 9600 3800
Wire Wire Line
	9600 3800 9600 3850
Wire Wire Line
	9600 4700 9600 4650
Wire Wire Line
	9600 4650 9700 4650
Wire Wire Line
	9200 4950 9700 4950
Wire Wire Line
	8350 950  8750 950 
Wire Wire Line
	8350 1150 8750 1150
Wire Wire Line
	8350 1350 8750 1350
Wire Wire Line
	5700 4650 5350 4650
Wire Wire Line
	5500 5250 5500 5050
Wire Wire Line
	5500 5050 5700 5050
Wire Wire Line
	8750 3450 8350 3450
Wire Wire Line
	8750 3650 8350 3650
Wire Wire Line
	8350 1750 8750 1750
Wire Bus Line
	8850 3550 8850 3850
Wire Wire Line
	8350 1950 8750 1950
Wire Wire Line
	8350 2850 8750 2850
Wire Bus Line
	8850 2750 8850 2850
Wire Wire Line
	8350 3250 8700 3250
Wire Wire Line
	1100 1200 1150 1200
Wire Wire Line
	1150 1200 1150 1250
Wire Wire Line
	1150 1850 1150 1800
Wire Wire Line
	1150 1800 1100 1800
Wire Wire Line
	1100 2350 1150 2350
Wire Wire Line
	1150 2350 1150 2400
Wire Wire Line
	10800 2950 10800 3050
Wire Wire Line
	10850 4650 10850 4750
Wire Wire Line
	10850 3800 10850 3900
Wire Wire Line
	9650 3100 9450 3100
Wire Wire Line
	9450 3100 9450 2950
Wire Wire Line
	9450 2950 9150 2950
Wire Wire Line
	1100 1600 1500 1600
Wire Wire Line
	9700 3950 9500 3950
Wire Wire Line
	9500 3950 9500 3800
Wire Wire Line
	9500 3800 9200 3800
Wire Bus Line
	8950 2350 8950 2550
Wire Wire Line
	8350 2550 8700 2550
Wire Wire Line
	3250 4700 3550 4700
Wire Wire Line
	3250 4900 3550 4900
Wire Wire Line
	3250 5100 3550 5100
Wire Wire Line
	3550 5300 3550 5450
Connection ~ 3550 5400
Wire Wire Line
	5700 4750 5300 4750
Wire Wire Line
	6250 5100 6800 5100
Wire Wire Line
	6650 5250 6650 5000
Wire Wire Line
	7550 5100 7300 5100
Wire Wire Line
	7300 5100 7300 5350
Connection ~ 7150 5250
Connection ~ 7300 5100
Wire Wire Line
	7300 5550 7300 5600
Connection ~ 7300 5550
Wire Wire Line
	4550 3350 4950 3350
Wire Wire Line
	3850 3050 4200 3050
Wire Notes Line
	3400 2300 3400 2750
Wire Notes Line
	3400 2750 4250 2750
Wire Notes Line
	4250 2750 4250 4250
Wire Notes Line
	4250 4250 550  4250
Wire Wire Line
	4950 2950 4550 2950
Wire Wire Line
	7750 4600 7350 4600
Wire Wire Line
	7150 6000 7300 6000
Wire Wire Line
	7300 6000 7300 5750
Wire Wire Line
	7300 5750 8550 5750
Wire Wire Line
	8550 5750 8550 6050
Wire Wire Line
	7150 6400 7300 6400
Wire Wire Line
	7300 6400 7300 6700
Wire Wire Line
	7300 6700 8400 6700
Wire Wire Line
	8400 6700 8400 6250
Wire Wire Line
	7150 6100 7450 6100
Wire Wire Line
	7450 6100 7450 6150
Wire Wire Line
	5700 4950 5250 4950
Wire Wire Line
	4950 4600 5300 4600
Wire Wire Line
	5300 4600 5300 4750
Wire Wire Line
	4950 4800 5000 4800
Wire Wire Line
	5000 4800 5000 4350
Wire Wire Line
	5000 4350 6350 4350
Wire Wire Line
	6350 4350 6350 4750
Wire Wire Line
	4950 5000 5250 5000
Wire Wire Line
	5250 5000 5250 4950
Wire Wire Line
	8350 3150 8900 3150
Wire Wire Line
	8900 3150 8900 4050
Wire Wire Line
	10450 5500 10150 5500
Wire Wire Line
	2700 6050 3100 6050
Text Label 10150 5500 0    60   ~ 0
EN
$Comp
L GND #PWR01
U 1 1 50640014
P 10200 5650
F 0 "#PWR01" H 10200 5650 30  0001 C CNN
F 1 "GND" H 10200 5580 30  0001 C CNN
	1    10200 5650
	1    0    0    -1  
$EndComp
$Comp
L PINHD-1X2 JP6
U 1 1 5063FFF2
P 10550 5600
F 0 "JP6" H 10300 5825 50  0000 L BNN
F 1 "EMRG_SHDN" H 10300 5400 50  0000 L BNN
F 2 "pinhead-1X02" H 10550 5750 50  0001 C CNN
	1    10550 5600
	1    0    0    -1  
$EndComp
$Comp
L R R18
U 1 1 5063FF81
P 8650 4050
F 0 "R18" V 8730 4050 50  0000 C CNN
F 1 "1K" V 8650 4050 50  0000 C CNN
	1    8650 4050
	0    1    1    0   
$EndComp
Text Label 3650 6400 0    60   ~ 0
Y_M0_I
Text Label 3300 6550 0    60   ~ 0
Y_PROT_I
Text Label 3400 6250 0    60   ~ 0
Y_CW_O
Text Label 3400 6150 0    60   ~ 0
Y_M1_O
Text Label 3400 6050 0    60   ~ 0
Y_M2_O
Text Label 2650 6250 0    60   ~ 0
Y_CLK_O
Text Label 2650 6150 0    60   ~ 0
Y_RST_O
Text Label 2700 6050 0    60   ~ 0
Y_EN_O
Text Label 8450 6400 0    60   ~ 0
Z_M0_I
Text Label 8150 6550 0    60   ~ 0
Z_PROT_I
Text Label 6050 5250 0    60   ~ 0
X_PROT_I
Text Label 6250 5100 0    60   ~ 0
X_M0_I
$Comp
L MOS_P_MY Q1
U 1 1 506302C4
P 3650 3050
F 0 "Q1" H 3650 3240 60  0000 R CNN
F 1 "NX2301P" H 3650 2870 60  0000 R CNN
	1    3650 3050
	-1   0    0    1   
$EndComp
$Comp
L GND #PWR02
U 1 1 5062FC84
P 8650 4900
F 0 "#PWR02" H 8650 4900 30  0001 C CNN
F 1 "GND" H 8650 4830 30  0001 C CNN
	1    8650 4900
	1    0    0    -1  
$EndComp
Text Label 7350 4800 0    60   ~ 0
LED_RED
Text Label 7350 4600 0    60   ~ 0
LED_GRN
Text Label 4550 3050 0    60   ~ 0
LED_RED
Text Label 4550 2950 0    60   ~ 0
LED_GRN
$Comp
L LED D8
U 1 1 5062FC31
P 8450 4800
F 0 "D8" H 8450 4900 50  0000 C CNN
F 1 "LED" H 8450 4700 50  0000 C CNN
	1    8450 4800
	1    0    0    -1  
$EndComp
$Comp
L R R17
U 1 1 5062FC30
P 8000 4800
F 0 "R17" V 7925 4800 50  0000 C CNN
F 1 "100" V 8000 4800 50  0000 C CNN
	1    8000 4800
	0    1    1    0   
$EndComp
$Comp
L R R16
U 1 1 5062FC1C
P 8000 4600
F 0 "R16" V 7925 4600 50  0000 C CNN
F 1 "100" V 8000 4600 50  0000 C CNN
	1    8000 4600
	0    1    1    0   
$EndComp
$Comp
L LED D7
U 1 1 5062FC0C
P 8450 4600
F 0 "D7" H 8450 4700 50  0000 C CNN
F 1 "LED" H 8450 4500 50  0000 C CNN
	1    8450 4600
	1    0    0    -1  
$EndComp
$Comp
L VBUS053CZ-HAF U2
U 1 1 4F8E514A
P 2400 3050
F 0 "U2" H 2375 2950 60  0000 C CNN
F 1 "VBUS053CZ-HAF" H 2475 3650 60  0000 C CNN
	1    2400 3050
	1    0    0    -1  
$EndComp
$Comp
L +3.3V #PWR03
U 1 1 5062FB53
P 3550 2850
F 0 "#PWR03" H 3550 2810 30  0001 C CNN
F 1 "+3.3V" H 3550 2960 30  0000 C CNN
	1    3550 2850
	0    -1   -1   0   
$EndComp
NoConn ~ 8350 1550
NoConn ~ 8350 1450
Text Label 8200 6250 0    60   ~ 0
Z_CW_O
Text Label 7450 6250 0    60   ~ 0
Z_CLK_O
Text Label 7500 6050 0    60   ~ 0
Z_EN_O
Text Label 7450 6150 0    60   ~ 0
Z_RST_O
Text Label 8200 6050 0    60   ~ 0
Z_M2_O
Text Label 8200 6150 0    60   ~ 0
Z_M1_O
Text Label 6000 4950 0    60   ~ 0
X_CW_O
Text Label 6000 4850 0    60   ~ 0
X_M1_O
Text Label 6000 4750 0    60   ~ 0
X_M2_O
Text Label 5250 4950 0    60   ~ 0
X_CLK_O
Text Label 5250 4850 0    60   ~ 0
X_RST_O
Text Label 5300 4750 0    60   ~ 0
X_EN_O
$Comp
L +5V #PWR04
U 1 1 5062DB9B
P 6150 5850
F 0 "#PWR04" H 6150 5940 20  0001 C CNN
F 1 "+5V" H 6150 5940 30  0000 C CNN
	1    6150 5850
	1    0    0    -1  
$EndComp
$Comp
L +5V #PWR05
U 1 1 5062DB87
P 1350 5850
F 0 "#PWR05" H 1350 5940 20  0001 C CNN
F 1 "+5V" H 1350 5940 30  0000 C CNN
	1    1350 5850
	1    0    0    -1  
$EndComp
$Comp
L +5V #PWR06
U 1 1 5062DB7B
P 3950 4550
F 0 "#PWR06" H 3950 4640 20  0001 C CNN
F 1 "+5V" H 3950 4640 30  0000 C CNN
	1    3950 4550
	1    0    0    -1  
$EndComp
$Comp
L R R14
U 1 1 5062CA61
P 9100 6550
F 0 "R14" V 9025 6550 50  0000 C CNN
F 1 "10K" V 9100 6550 50  0000 C CNN
	1    9100 6550
	0    1    1    0   
$EndComp
$Comp
L R R15
U 1 1 5062CA60
P 9250 6400
F 0 "R15" V 9330 6400 50  0000 C CNN
F 1 "10K" V 9250 6400 50  0000 C CNN
	1    9250 6400
	0    -1   -1   0   
$EndComp
$Comp
L GND #PWR07
U 1 1 5062CA5F
P 9500 6900
F 0 "#PWR07" H 9500 6900 30  0001 C CNN
F 1 "GND" H 9500 6830 30  0001 C CNN
	1    9500 6900
	1    0    0    -1  
$EndComp
$Comp
L ZENERSMALL D5
U 1 1 5062CA5E
P 9350 6650
F 0 "D5" H 9350 6750 40  0000 C CNN
F 1 "3V3" H 9350 6550 30  0000 C CNN
	1    9350 6650
	0    -1   -1   0   
$EndComp
$Comp
L ZENERSMALL D6
U 1 1 5062CA5D
P 9500 6750
F 0 "D6" H 9500 6850 40  0000 C CNN
F 1 "3V3" H 9500 6650 30  0000 C CNN
	1    9500 6750
	0    -1   -1   0   
$EndComp
$Comp
L GND #PWR08
U 1 1 5062CA5C
P 5750 6750
F 0 "#PWR08" H 5750 6750 30  0001 C CNN
F 1 "GND" H 5750 6680 30  0001 C CNN
	1    5750 6750
	1    0    0    -1  
$EndComp
Text Label 5450 6400 0    60   ~ 0
Z_CW
Text Label 5450 5900 0    60   ~ 0
Z_M1
Text Label 5450 6000 0    60   ~ 0
Z_M2
Text Label 5450 6300 0    60   ~ 0
Z_CLK
Text Label 5450 6100 0    60   ~ 0
nRST
Text Label 5450 6200 0    60   ~ 0
EN
$Comp
L 74LS367 U8
U 1 1 5062CA5B
P 6450 6300
F 0 "U8" H 6450 6250 60  0000 C CNN
F 1 "74HCT367" H 6550 6050 60  0000 C CNN
	1    6450 6300
	1    0    0    -1  
$EndComp
Text Notes 5450 6300 1    60   ~ 0
Z_CTRL
$Comp
L +3.3V #PWR09
U 1 1 5062CA5A
P 8850 5800
F 0 "#PWR09" H 8850 5760 30  0001 C CNN
F 1 "+3.3V" H 8850 5910 30  0000 C CNN
	1    8850 5800
	1    0    0    -1  
$EndComp
$Comp
L R R13
U 1 1 5062CA59
P 9000 6050
F 0 "R13" V 8925 6050 50  0000 C CNN
F 1 "10K" V 9000 6050 50  0000 C CNN
	1    9000 6050
	-1   0    0    1   
$EndComp
$Comp
L R R12
U 1 1 5062CA58
P 8850 6050
F 0 "R12" V 8930 6050 50  0000 C CNN
F 1 "10K" V 8850 6050 50  0000 C CNN
	1    8850 6050
	-1   0    0    1   
$EndComp
Text Label 9750 6550 2    60   ~ 0
Z_PROT
Text Label 9750 6400 2    60   ~ 0
Z_M0
$Comp
L GND #PWR010
U 1 1 5062CA57
P 8650 6000
F 0 "#PWR010" H 8650 6000 30  0001 C CNN
F 1 "GND" H 8650 5930 30  0001 C CNN
	1    8650 6000
	1    0    0    -1  
$EndComp
$Comp
L +5V #PWR011
U 1 1 5062CA56
P 7550 5950
F 0 "#PWR011" H 7550 6040 20  0001 C CNN
F 1 "+5V" H 7550 6040 30  0000 C CNN
	1    7550 5950
	1    0    0    -1  
$EndComp
$Comp
L PINHD-2X5 JP?
U 1 1 5062CA55
P 8000 6150
AR Path="/4F89A734" Ref="JP?"  Part="1" 
AR Path="/4FEC6FCA" Ref="JP?"  Part="1" 
AR Path="/5062C9F6" Ref="JP?"  Part="1" 
AR Path="/5062CA55" Ref="JP4"  Part="1" 
F 0 "JP4" H 7750 6475 50  0000 L BNN
F 1 "Z_CTRL" H 7750 5750 50  0000 L BNN
F 2 "pinhead-2X05" H 8000 6300 50  0001 C CNN
	1    8000 6150
	1    0    0    -1  
$EndComp
$Comp
L PINHD-2X5 JP?
U 1 1 5062C9F6
P 3200 6150
AR Path="/4F89A734" Ref="JP?"  Part="1" 
AR Path="/4FEC6FCA" Ref="JP?"  Part="1" 
AR Path="/5062C9F6" Ref="JP2"  Part="1" 
F 0 "JP2" H 2950 6475 50  0000 L BNN
F 1 "Y_CTRL" H 2950 5750 50  0000 L BNN
F 2 "pinhead-2X05" H 3200 6300 50  0001 C CNN
	1    3200 6150
	1    0    0    -1  
$EndComp
$Comp
L +5V #PWR012
U 1 1 5062C9F5
P 2750 5950
F 0 "#PWR012" H 2750 6040 20  0001 C CNN
F 1 "+5V" H 2750 6040 30  0000 C CNN
	1    2750 5950
	1    0    0    -1  
$EndComp
$Comp
L GND #PWR013
U 1 1 5062C9F4
P 3850 6000
F 0 "#PWR013" H 3850 6000 30  0001 C CNN
F 1 "GND" H 3850 5930 30  0001 C CNN
	1    3850 6000
	1    0    0    -1  
$EndComp
Text Label 4950 6400 2    60   ~ 0
Y_M0
Text Label 4950 6550 2    60   ~ 0
Y_PROT
$Comp
L R R1
U 1 1 5062C9F3
P 4050 6050
F 0 "R1" V 4130 6050 50  0000 C CNN
F 1 "10K" V 4050 6050 50  0000 C CNN
	1    4050 6050
	-1   0    0    1   
$EndComp
$Comp
L R R2
U 1 1 5062C9F2
P 4200 6050
F 0 "R2" V 4125 6050 50  0000 C CNN
F 1 "10K" V 4200 6050 50  0000 C CNN
	1    4200 6050
	-1   0    0    1   
$EndComp
$Comp
L +3.3V #PWR014
U 1 1 5062C9F1
P 4050 5800
F 0 "#PWR014" H 4050 5760 30  0001 C CNN
F 1 "+3.3V" H 4050 5910 30  0000 C CNN
	1    4050 5800
	1    0    0    -1  
$EndComp
Text Notes 650  6300 1    60   ~ 0
Y_CTRL
$Comp
L 74LS367 U7
U 1 1 5062C9F0
P 1650 6300
F 0 "U7" H 1650 6250 60  0000 C CNN
F 1 "74HCT367" H 1750 6050 60  0000 C CNN
	1    1650 6300
	1    0    0    -1  
$EndComp
Text Label 650  5900 0    60   ~ 0
EN
Text Label 650  6000 0    60   ~ 0
nRST
Text Label 650  6100 0    60   ~ 0
Y_CLK
Text Label 650  6200 0    60   ~ 0
Y_M2
Text Label 650  6300 0    60   ~ 0
Y_M1
Text Label 650  6400 0    60   ~ 0
Y_CW
$Comp
L GND #PWR015
U 1 1 5062C9EF
P 950 6750
F 0 "#PWR015" H 950 6750 30  0001 C CNN
F 1 "GND" H 950 6680 30  0001 C CNN
	1    950  6750
	1    0    0    -1  
$EndComp
$Comp
L ZENERSMALL D4
U 1 1 5062C9EE
P 4700 6750
F 0 "D4" H 4700 6850 40  0000 C CNN
F 1 "3V3" H 4700 6650 30  0000 C CNN
	1    4700 6750
	0    -1   -1   0   
$EndComp
$Comp
L ZENERSMALL D3
U 1 1 5062C9ED
P 4550 6650
F 0 "D3" H 4550 6750 40  0000 C CNN
F 1 "3V3" H 4550 6550 30  0000 C CNN
	1    4550 6650
	0    -1   -1   0   
$EndComp
$Comp
L GND #PWR016
U 1 1 5062C9EC
P 4700 6900
F 0 "#PWR016" H 4700 6900 30  0001 C CNN
F 1 "GND" H 4700 6830 30  0001 C CNN
	1    4700 6900
	1    0    0    -1  
$EndComp
$Comp
L R R8
U 1 1 5062C9EB
P 4450 6400
F 0 "R8" V 4530 6400 50  0000 C CNN
F 1 "10K" V 4450 6400 50  0000 C CNN
	1    4450 6400
	0    -1   -1   0   
$EndComp
$Comp
L R R7
U 1 1 5062C9EA
P 4300 6550
F 0 "R7" V 4225 6550 50  0000 C CNN
F 1 "10K" V 4300 6550 50  0000 C CNN
	1    4300 6550
	0    1    1    0   
$EndComp
$Comp
L R R10
U 1 1 5062AF48
P 6900 5250
F 0 "R10" V 6825 5250 50  0000 C CNN
F 1 "10K" V 6900 5250 50  0000 C CNN
	1    6900 5250
	0    1    1    0   
$EndComp
$Comp
L R R11
U 1 1 5062AED1
P 7050 5100
F 0 "R11" V 7130 5100 50  0000 C CNN
F 1 "10K" V 7050 5100 50  0000 C CNN
	1    7050 5100
	0    -1   -1   0   
$EndComp
$Comp
L GND #PWR017
U 1 1 506164A3
P 7300 5600
F 0 "#PWR017" H 7300 5600 30  0001 C CNN
F 1 "GND" H 7300 5530 30  0001 C CNN
	1    7300 5600
	1    0    0    -1  
$EndComp
$Comp
L ZENERSMALL D1
U 1 1 5061648A
P 7150 5350
F 0 "D1" H 7150 5450 40  0000 C CNN
F 1 "3V3" H 7150 5250 30  0000 C CNN
	1    7150 5350
	0    -1   -1   0   
$EndComp
$Comp
L ZENERSMALL D2
U 1 1 5061647E
P 7300 5450
F 0 "D2" H 7300 5550 40  0000 C CNN
F 1 "3V3" H 7300 5350 30  0000 C CNN
	1    7300 5450
	0    -1   -1   0   
$EndComp
$Comp
L GND #PWR018
U 1 1 506162D6
P 3550 5450
F 0 "#PWR018" H 3550 5450 30  0001 C CNN
F 1 "GND" H 3550 5380 30  0001 C CNN
	1    3550 5450
	1    0    0    -1  
$EndComp
Text Label 3250 4900 0    60   ~ 0
X_CW
Text Label 3250 5100 0    60   ~ 0
X_M1
Text Label 3250 4800 0    60   ~ 0
X_M2
Text Label 3250 5000 0    60   ~ 0
X_CLK
Text Label 3250 4700 0    60   ~ 0
nRST
Text Label 3250 4600 0    60   ~ 0
EN
$Comp
L 74LS367 U6
U 1 1 50616216
P 4250 5000
F 0 "U6" H 4250 4950 60  0000 C CNN
F 1 "74HCT367" H 4350 4750 60  0000 C CNN
	1    4250 5000
	1    0    0    -1  
$EndComp
Text Label 8750 1950 2    60   ~ 0
USB_PU
$Comp
L PINHD-1X4 JP?
U 1 1 504899A4
P 9350 1200
AR Path="/4FEC913F" Ref="JP?"  Part="1" 
AR Path="/504899A4" Ref="JP1"  Part="1" 
F 0 "JP1" H 9250 1550 50  0000 L BNN
F 1 "SWD" H 9200 900 50  0000 L BNN
F 2 "pinhead-1X04" H 9350 1350 50  0001 C CNN
	1    9350 1200
	-1   0    0    -1  
$EndComp
Text Label 4200 3050 2    60   ~ 0
USB_PU
Text Label 9200 4650 0    60   ~ 0
Z_24V_IN
Text Label 9200 3800 0    60   ~ 0
Y_24V_IN
Text Label 1500 2150 2    60   ~ 0
Z_24V_IN
Text Label 1500 1600 2    60   ~ 0
Y_24V_IN
Text Label 1500 1000 2    60   ~ 0
X_24V_IN
Text Label 9150 2950 0    60   ~ 0
X_24V_IN
$Comp
L CONN_2_V P6
U 1 1 50116F4A
P 10950 3450
F 0 "P6" H 10870 3675 40  0000 C CNN
F 1 "Y_VM" V 11100 3500 40  0000 C CNN
	1    10950 3450
	0    -1   -1   0   
$EndComp
$Comp
L CONN_2_V P7
U 1 1 50116F32
P 10950 4300
F 0 "P7" H 10870 4525 40  0000 C CNN
F 1 "Z_VM" V 11100 4350 40  0000 C CNN
	1    10950 4300
	0    -1   -1   0   
$EndComp
$Comp
L CONN_2_V P5
U 1 1 50116EBB
P 10900 2600
F 0 "P5" H 10820 2825 40  0000 C CNN
F 1 "X_VM" V 11050 2650 40  0000 C CNN
	1    10900 2600
	0    -1   -1   0   
$EndComp
$Comp
L CONN_2_V P4
U 1 1 50116D48
P 1700 1050
F 0 "P4" H 1620 1275 40  0000 C CNN
F 1 "PWR_5V_IN" H 1670 1230 40  0000 C CNN
	1    1700 1050
	-1   0    0    -1  
$EndComp
$Comp
L CONN_2_V P3
U 1 1 50116D21
P 750 2250
F 0 "P3" H 670 2475 40  0000 C CNN
F 1 "PWR_24V_Z_IN" H 720 2430 40  0000 C CNN
	1    750  2250
	-1   0    0    -1  
$EndComp
$Comp
L GND #PWR019
U 1 1 50116D1E
P 1150 2400
F 0 "#PWR019" H 1150 2400 30  0001 C CNN
F 1 "GND" H 1150 2330 30  0001 C CNN
	1    1150 2400
	1    0    0    -1  
$EndComp
$Comp
L GND #PWR020
U 1 1 50116D13
P 1150 1850
F 0 "#PWR020" H 1150 1850 30  0001 C CNN
F 1 "GND" H 1150 1780 30  0001 C CNN
	1    1150 1850
	1    0    0    -1  
$EndComp
$Comp
L CONN_2_V P2
U 1 1 50116D10
P 750 1700
F 0 "P2" H 670 1925 40  0000 C CNN
F 1 "PWR_24V_Y_IN" H 720 1880 40  0000 C CNN
	1    750  1700
	-1   0    0    -1  
$EndComp
$Comp
L CONN_2_V P1
U 1 1 5011130C
P 750 1100
F 0 "P1" H 670 1325 40  0000 C CNN
F 1 "PWR_24V_X_IN" H 720 1280 40  0000 C CNN
	1    750  1100
	-1   0    0    -1  
$EndComp
$Comp
L R R9
U 1 1 500E71E7
P 3300 3250
F 0 "R9" V 3380 3250 50  0000 C CNN
F 1 "1K5" V 3300 3250 50  0000 C CNN
	1    3300 3250
	0    1    1    0   
$EndComp
$Comp
L STM32F103X4/6 UC1
U 1 1 500D32C7
P 5850 2300
F 0 "UC1" H 6500 2100 60  0000 C CNN
F 1 "STM32F103X4/6" H 5800 3850 60  0000 C CNN
	1    5850 2300
	1    0    0    -1  
$EndComp
Text Label 8400 1750 0    60   ~ 0
Y_M0
Text Label 4550 3350 0    60   ~ 0
Z_M2
Text Label 4550 3450 0    60   ~ 0
Z_M1
Text Label 4550 3550 0    60   ~ 0
Z_CLK
Text Notes 8950 1550 3    60   ~ 0
Y_CTRL
Entry Wire Line
	8750 2950 8850 2850
Entry Wire Line
	8750 2850 8850 2750
Text Label 8400 2950 0    60   ~ 0
Z_CW
Text Label 8400 2850 0    60   ~ 0
Z_PROT
Text Label 8700 2550 2    60   ~ 0
Z_M0
Entry Wire Line
	8750 3750 8850 3850
Entry Wire Line
	8750 3650 8850 3750
Entry Wire Line
	8750 3550 8850 3650
Entry Wire Line
	8750 3450 8850 3550
Entry Wire Line
	8750 1850 8850 1750
Entry Wire Line
	8750 1750 8850 1650
Text Label 8400 3650 0    60   ~ 0
Y_M2
Text Label 8400 3550 0    60   ~ 0
Y_M1
Text Label 8400 3750 0    60   ~ 0
Y_CLK
Text Label 8400 3450 0    60   ~ 0
Y_CW
Text Label 8400 1850 0    60   ~ 0
Y_PROT
Text Label 10850 4750 1    60   ~ 0
Z_M+
Text Label 10850 3900 1    60   ~ 0
Y_M+
Text Label 10800 3050 1    60   ~ 0
X_M+
$Comp
L +5V #PWR021
U 1 1 4FF4081F
P 10850 4950
F 0 "#PWR021" H 10850 5040 20  0001 C CNN
F 1 "+5V" H 10850 5040 30  0000 C CNN
	1    10850 4950
	1    0    0    -1  
$EndComp
$Comp
L +5V #PWR022
U 1 1 4FF4081A
P 10850 4100
F 0 "#PWR022" H 10850 4190 20  0001 C CNN
F 1 "+5V" H 10850 4190 30  0000 C CNN
	1    10850 4100
	1    0    0    -1  
$EndComp
$Comp
L +5V #PWR023
U 1 1 4FF40810
P 10800 3250
F 0 "#PWR023" H 10800 3340 20  0001 C CNN
F 1 "+5V" H 10800 3340 30  0000 C CNN
	1    10800 3250
	1    0    0    -1  
$EndComp
Text Notes 8950 1100 3    60   ~ 0
X_CTRL
Entry Wire Line
	8750 1350 8850 1450
Entry Wire Line
	8750 1250 8850 1350
Entry Wire Line
	8750 1150 8850 1250
Entry Wire Line
	8750 1050 8850 1150
Entry Wire Line
	8750 950  8850 1050
Entry Wire Line
	8750 850  8850 950 
Text Label 8400 950  0    60   ~ 0
X_PROT
Text Label 8400 850  0    60   ~ 0
X_M0
Text Label 8400 1250 0    60   ~ 0
X_M1
Text Label 8400 1350 0    60   ~ 0
X_M2
Text Label 8400 1050 0    60   ~ 0
X_CW
Text Label 8400 1150 0    60   ~ 0
X_CLK
$Comp
L GND #PWR024
U 1 1 4FED7CF4
P 9600 4700
F 0 "#PWR024" H 9600 4700 30  0001 C CNN
F 1 "GND" H 9600 4630 30  0001 C CNN
	1    9600 4700
	1    0    0    -1  
$EndComp
$Comp
L GND #PWR025
U 1 1 4FED7CF3
P 11050 4750
F 0 "#PWR025" H 11050 4750 30  0001 C CNN
F 1 "GND" H 11050 4680 30  0001 C CNN
	1    11050 4750
	1    0    0    -1  
$EndComp
Text Label 9200 4950 0    60   ~ 0
Z_VM_TOGL
$Comp
L RELAY U5
U 1 1 4FED7CF1
P 10400 5300
F 0 "U5" H 10450 5950 60  0000 C CNN
F 1 "Z_VM_SW" H 10350 6100 60  0000 C CNN
	1    10400 5300
	1    0    0    -1  
$EndComp
$Comp
L RELAY U4
U 1 1 4FED7CC3
P 10400 4450
F 0 "U4" H 10450 5100 60  0000 C CNN
F 1 "Y_VM_SW" H 10350 5250 60  0000 C CNN
	1    10400 4450
	1    0    0    -1  
$EndComp
Text Label 9200 4100 0    60   ~ 0
Y_VM_TOGL
$Comp
L GND #PWR026
U 1 1 4FED7CC1
P 11050 3900
F 0 "#PWR026" H 11050 3900 30  0001 C CNN
F 1 "GND" H 11050 3830 30  0001 C CNN
	1    11050 3900
	1    0    0    -1  
$EndComp
$Comp
L GND #PWR027
U 1 1 4FED7CC0
P 9600 3850
F 0 "#PWR027" H 9600 3850 30  0001 C CNN
F 1 "GND" H 9600 3780 30  0001 C CNN
	1    9600 3850
	1    0    0    -1  
$EndComp
Text Label 8700 3250 2    60   ~ 0
nRST
Text Label 8200 4050 0    60   ~ 0
EN
$Comp
L AP1117 U1
U 1 1 4FED791E
P 2700 1250
F 0 "U1" H 2950 1450 60  0000 C CNN
F 1 "AP1117" H 2700 1650 60  0000 C CNN
	1    2700 1250
	1    0    0    -1  
$EndComp
Text Notes 5000 2850 2    60   ~ 0
VM RELAYS
Text Label 2300 4750 0    60   ~ 0
Y_VM_TOGL
$Comp
L PWR_FLAG #FLG028
U 1 1 4FED77B3
P 2250 950
F 0 "#FLG028" H 2250 1045 30  0001 C CNN
F 1 "PWR_FLAG" H 2250 1130 30  0000 C CNN
	1    2250 950 
	1    0    0    -1  
$EndComp
Entry Wire Line
	4400 2850 4500 2750
Entry Wire Line
	4400 2750 4500 2650
Entry Wire Line
	4400 2650 4500 2550
Text Label 4500 2750 0    60   ~ 0
Z_VM_SW
Text Label 4500 2550 0    60   ~ 0
X_VM_SW
Text Label 4500 2650 0    60   ~ 0
Y_VM_SW
Text Notes 3250 5000 1    60   ~ 0
X_CTRL
$Comp
L GND #PWR029
U 1 1 4FED73E0
P 2700 1400
F 0 "#PWR029" H 2700 1400 30  0001 C CNN
F 1 "GND" H 2700 1330 30  0001 C CNN
	1    2700 1400
	1    0    0    -1  
$EndComp
$Comp
L GND #PWR030
U 1 1 4FED73D7
P 3100 1400
F 0 "#PWR030" H 3100 1400 30  0001 C CNN
F 1 "GND" H 3100 1330 30  0001 C CNN
	1    3100 1400
	1    0    0    -1  
$EndComp
$Comp
L CP C2
U 1 1 4FED73C0
P 3100 1150
F 0 "C2" H 3150 1250 50  0000 L CNN
F 1 "22U" H 3150 1050 50  0000 L CNN
	1    3100 1150
	1    0    0    -1  
$EndComp
$Comp
L +3.3V #PWR031
U 1 1 4FED73BB
P 3200 950
F 0 "#PWR031" H 3200 910 30  0001 C CNN
F 1 "+3.3V" H 3200 1060 30  0000 C CNN
	1    3200 950 
	1    0    0    -1  
$EndComp
$Comp
L GND #PWR032
U 1 1 4FED73A7
P 2250 1400
F 0 "#PWR032" H 2250 1400 30  0001 C CNN
F 1 "GND" H 2250 1330 30  0001 C CNN
	1    2250 1400
	1    0    0    -1  
$EndComp
$Comp
L CP C1
U 1 1 4FED7382
P 2250 1150
F 0 "C1" H 2300 1250 50  0000 L CNN
F 1 "22U" H 2300 1050 50  0000 L CNN
	1    2250 1150
	1    0    0    -1  
$EndComp
$Comp
L GND #PWR033
U 1 1 4FED7135
P 2050 1400
F 0 "#PWR033" H 2050 1400 30  0001 C CNN
F 1 "GND" H 2050 1330 30  0001 C CNN
	1    2050 1400
	1    0    0    -1  
$EndComp
$Comp
L +5V #PWR034
U 1 1 4FED712F
P 2100 850
F 0 "#PWR034" H 2100 940 20  0001 C CNN
F 1 "+5V" H 2100 940 30  0000 C CNN
	1    2100 850 
	1    0    0    -1  
$EndComp
$Comp
L GND #PWR035
U 1 1 4FED65FC
P 1150 1250
F 0 "#PWR035" H 1150 1250 30  0001 C CNN
F 1 "GND" H 1150 1180 30  0001 C CNN
	1    1150 1250
	1    0    0    -1  
$EndComp
Text Label 2300 4650 0    60   ~ 0
X_VM_TOGL
$Comp
L GND #PWR036
U 1 1 4FED4E3E
P 9550 3000
F 0 "#PWR036" H 9550 3000 30  0001 C CNN
F 1 "GND" H 9550 2930 30  0001 C CNN
	1    9550 3000
	1    0    0    -1  
$EndComp
$Comp
L GND #PWR037
U 1 1 4FED4E28
P 11000 3050
F 0 "#PWR037" H 11000 3050 30  0001 C CNN
F 1 "GND" H 11000 2980 30  0001 C CNN
	1    11000 3050
	1    0    0    -1  
$EndComp
NoConn ~ 2300 5250
NoConn ~ 2300 5150
NoConn ~ 2300 5050
NoConn ~ 2300 4950
NoConn ~ 1300 5250
NoConn ~ 1300 5150
NoConn ~ 1300 5050
NoConn ~ 1300 4950
Text Notes 3000 5000 1    60   ~ 0
VM RELAYS
Entry Wire Line
	2800 4850 2900 4750
Entry Wire Line
	2800 4750 2900 4650
Entry Wire Line
	2800 4650 2900 4550
Text Label 2300 4850 0    60   ~ 0
Z_VM_TOGL
Text Label 9150 3250 0    60   ~ 0
X_VM_TOGL
Text Notes 750  5200 1    60   ~ 0
VM SWITCHES
Entry Wire Line
	750  4950 850  4850
Entry Wire Line
	750  4850 850  4750
Entry Wire Line
	750  4750 850  4650
Text Label 850  4850 0    60   ~ 0
Z_VM_SW
Text Label 850  4750 0    60   ~ 0
Y_VM_SW
Text Label 850  4650 0    60   ~ 0
X_VM_SW
$Comp
L GND #PWR038
U 1 1 4FED4C4B
P 1300 5400
F 0 "#PWR038" H 1300 5400 30  0001 C CNN
F 1 "GND" H 1300 5330 30  0001 C CNN
	1    1300 5400
	1    0    0    -1  
$EndComp
$Comp
L +5V #PWR039
U 1 1 4FED4C2A
P 2350 5350
F 0 "#PWR039" H 2350 5440 20  0001 C CNN
F 1 "+5V" H 2350 5440 30  0000 C CNN
	1    2350 5350
	0    1    1    0   
$EndComp
$Comp
L ULN2003AD IC1
U 1 1 4FED4AF1
P 1800 4950
F 0 "IC1" H 1500 5380 50  0000 L BNN
F 1 "ULN2003AD" H 1500 4350 50  0000 L BNN
F 2 "uln-udn-SO16" H 1800 5100 50  0001 C CNN
	1    1800 4950
	1    0    0    -1  
$EndComp
$Comp
L RELAY U3
U 1 1 4FED2B29
P 10350 3600
F 0 "U3" H 10400 4250 60  0000 C CNN
F 1 "X_VM_SW" H 10300 4400 60  0000 C CNN
	1    10350 3600
	1    0    0    -1  
$EndComp
Text Notes 4800 4150 0    60   ~ 0
NOTE: EN and nRST are global (all axes)
$Comp
L +3.3V #PWR040
U 1 1 4FECAA0F
P 6650 4500
F 0 "#PWR040" H 6650 4460 30  0001 C CNN
F 1 "+3.3V" H 6650 4610 30  0000 C CNN
	1    6650 4500
	1    0    0    -1  
$EndComp
$Comp
L R R5
U 1 1 4FECA27F
P 6800 4750
F 0 "R5" V 6725 4750 50  0000 C CNN
F 1 "10K" V 6800 4750 50  0000 C CNN
	1    6800 4750
	-1   0    0    1   
$EndComp
$Comp
L R R6
U 1 1 4FECA1A3
P 6650 4750
F 0 "R6" V 6730 4750 50  0000 C CNN
F 1 "10K" V 6650 4750 50  0000 C CNN
	1    6650 4750
	-1   0    0    1   
$EndComp
Text Label 7550 5250 2    60   ~ 0
X_PROT
Text Label 7550 5100 2    60   ~ 0
X_M0
$Comp
L GND #PWR041
U 1 1 4FEC7077
P 6450 4700
F 0 "#PWR041" H 6450 4700 30  0001 C CNN
F 1 "GND" H 6450 4630 30  0001 C CNN
	1    6450 4700
	1    0    0    -1  
$EndComp
$Comp
L +5V #PWR042
U 1 1 4FEC706C
P 5350 4650
F 0 "#PWR042" H 5350 4740 20  0001 C CNN
F 1 "+5V" H 5350 4740 30  0000 C CNN
	1    5350 4650
	1    0    0    -1  
$EndComp
$Comp
L PINHD-2X5 JP?
U 1 1 4FEC6FCA
P 5800 4850
AR Path="/4F89A734" Ref="JP?"  Part="1" 
AR Path="/4FEC6FCA" Ref="JP3"  Part="1" 
F 0 "JP3" H 5550 5175 50  0000 L BNN
F 1 "X_CTRL" H 5550 4450 50  0000 L BNN
F 2 "pinhead-2X05" H 5800 5000 50  0001 C CNN
	1    5800 4850
	1    0    0    -1  
$EndComp
NoConn ~ 1200 3650
$Comp
L GND #PWR043
U 1 1 4F8E5534
P 3050 4100
F 0 "#PWR043" H 3050 4100 30  0001 C CNN
F 1 "GND" H 3050 4030 30  0001 C CNN
	1    3050 4100
	1    0    0    -1  
$EndComp
$Comp
L GND #PWR044
U 1 1 4F8E552C
P 2750 3950
F 0 "#PWR044" H 2750 3950 30  0001 C CNN
F 1 "GND" H 2750 3880 30  0001 C CNN
	1    2750 3950
	1    0    0    -1  
$EndComp
$Comp
L C C15
U 1 1 4F8E5500
P 3050 3850
F 0 "C15" H 3100 3950 50  0000 L CNN
F 1 "48P" H 3100 3750 50  0000 L CNN
	1    3050 3850
	1    0    0    -1  
$EndComp
$Comp
L C C14
U 1 1 4F8E54F5
P 2750 3700
F 0 "C14" H 2800 3800 50  0000 L CNN
F 1 "48P" H 2800 3600 50  0000 L CNN
	1    2750 3700
	1    0    0    -1  
$EndComp
$Comp
L GND #PWR045
U 1 1 4F8E51A7
P 3300 3050
F 0 "#PWR045" H 3300 3050 30  0001 C CNN
F 1 "GND" H 3300 2980 30  0001 C CNN
	1    3300 3050
	1    0    0    -1  
$EndComp
$Comp
L MINI-USB-UX60-MB-5S8 X2
U 1 1 4F8D397B
P 1000 3550
F 0 "X2" H 1100 3950 50  0000 L BNN
F 1 "MINI-USB" H 900 3100 50  0000 L BNN
F 2 "con-hirose-UX60-MB-5S8" H 1000 3700 50  0001 C CNN
	1    1000 3550
	-1   0    0    -1  
$EndComp
$Comp
L C C13
U 1 1 4F8D34ED
P 4750 1050
F 0 "C13" V 4850 1150 50  0000 L CNN
F 1 "4.7U" V 4600 1050 50  0000 L CNN
	1    4750 1050
	0    -1   -1   0   
$EndComp
$Comp
L C C8
U 1 1 4F8D34DF
P 4350 1600
F 0 "C8" H 4400 1700 50  0000 L CNN
F 1 "1U" H 4400 1500 50  0000 L CNN
	1    4350 1600
	1    0    0    -1  
$EndComp
Text Notes 10100 1050 3    60   ~ 0
DBG
Text Notes 9300 700  0    60   ~ 0
CONNECTORS / RELAYS
Text Label 10800 1800 0    60   ~ 0
SDA
Text Label 10800 1600 0    60   ~ 0
SCL
Entry Wire Line
	11000 1600 11100 1700
Entry Wire Line
	11000 1800 11100 1700
$Comp
L GND #PWR046
U 1 1 4F89AB68
P 10950 1450
F 0 "#PWR046" H 10950 1450 30  0001 C CNN
F 1 "GND" H 10950 1380 30  0001 C CNN
	1    10950 1450
	0    -1   -1   0   
$EndComp
$Comp
L +3.3V #PWR047
U 1 1 4F89AB64
P 10150 1450
F 0 "#PWR047" H 10150 1410 30  0001 C CNN
F 1 "+3.3V" H 10150 1560 30  0000 C CNN
	1    10150 1450
	1    0    0    -1  
$EndComp
$Comp
L PINHD-2X2 JP5
U 1 1 4F89AB5E
P 10550 1600
F 0 "JP5" H 10000 1600 50  0000 L BNN
F 1 "I2C" H 10400 1800 50  0000 L BNN
F 2 "pinhead-2X02" H 10550 1750 50  0001 C CNN
	1    10550 1600
	1    0    0    -1  
$EndComp
$Comp
L GND #PWR048
U 1 1 4F89A6F5
P 9800 1050
F 0 "#PWR048" H 9800 1050 30  0001 C CNN
F 1 "GND" H 9800 980 30  0001 C CNN
	1    9800 1050
	0    -1   -1   0   
$EndComp
$Comp
L +3.3V #PWR049
U 1 1 4F89A6EB
P 9650 950
F 0 "#PWR049" H 9650 910 30  0001 C CNN
F 1 "+3.3V" H 9650 1060 30  0000 C CNN
	1    9650 950 
	1    0    0    -1  
$EndComp
Text Label 9600 1300 0    60   ~ 0
SWDIO
Text Label 9600 1200 0    60   ~ 0
SWCLK
Entry Wire Line
	9900 1300 10000 1200
Entry Wire Line
	9900 1200 10000 1100
Text Notes 3600 700  0    60   ~ 0
LOGIC
Text Notes 9050 2550 1    60   ~ 0
DBG
Text Notes 4600 3850 1    60   ~ 0
I2C
Text Notes 9000 2100 1    60   ~ 0
USB
Text Label 4700 3750 0    60   ~ 0
SDA
Text Label 4700 3650 0    60   ~ 0
SCL
Entry Wire Line
	4600 3850 4700 3750
Entry Wire Line
	4600 3750 4700 3650
Text Label 8400 2450 0    60   ~ 0
SWCLK
Text Label 8400 2250 0    60   ~ 0
SWDIO
Entry Wire Line
	8850 2450 8950 2550
Entry Wire Line
	8850 2250 8950 2350
Text Label 8400 2150 0    60   ~ 0
D+
Text Label 8400 2050 0    60   ~ 0
D-
Entry Wire Line
	8800 2150 8900 2050
Entry Wire Line
	8800 2050 8900 1950
$Comp
L GND #PWR050
U 1 1 4F894FE3
P 4950 2100
F 0 "#PWR050" H 4950 2100 30  0001 C CNN
F 1 "GND" H 4950 2030 30  0001 C CNN
	1    4950 2100
	1    0    0    -1  
$EndComp
$Comp
L GND #PWR051
U 1 1 4F8830C9
P 4650 1850
F 0 "#PWR051" H 4650 1850 30  0001 C CNN
F 1 "GND" H 4650 1780 30  0001 C CNN
	1    4650 1850
	1    0    0    -1  
$EndComp
NoConn ~ 4950 1950
$Comp
L C C11
U 1 1 4F88304E
P 4650 1600
F 0 "C11" H 4700 1700 50  0000 L CNN
F 1 "10N" H 4700 1500 50  0000 L CNN
	1    4650 1600
	1    0    0    -1  
$EndComp
Text Label 3100 3650 0    60   ~ 0
D+
Text Label 3100 3500 0    60   ~ 0
D-
Entry Wire Line
	3200 3650 3300 3550
Entry Wire Line
	3200 3500 3300 3400
$Comp
L R R4
U 1 1 4F882FFD
P 2350 3650
F 0 "R4" V 2430 3650 50  0000 C CNN
F 1 "22" V 2350 3650 50  0000 C CNN
	1    2350 3650
	0    -1   -1   0   
$EndComp
$Comp
L R R3
U 1 1 4F882FEA
P 2350 3500
F 0 "R3" V 2430 3500 50  0000 C CNN
F 1 "22" V 2350 3500 50  0000 C CNN
	1    2350 3500
	0    -1   -1   0   
$EndComp
$Comp
L C C12
U 1 1 4F882F00
P 4250 1050
F 0 "C12" H 4300 1150 50  0000 L CNN
F 1 "100N" H 4300 950 50  0000 L CNN
	1    4250 1050
	1    0    0    -1  
$EndComp
$Comp
L C C9
U 1 1 4F882EFB
P 3950 1050
F 0 "C9" H 4000 1150 50  0000 L CNN
F 1 "100N" H 4000 950 50  0000 L CNN
	1    3950 1050
	1    0    0    -1  
$EndComp
$Comp
L C C7
U 1 1 4F882EBF
P 3650 1050
F 0 "C7" H 3700 1150 50  0000 L CNN
F 1 "100N" H 3700 950 50  0000 L CNN
	1    3650 1050
	1    0    0    -1  
$EndComp
NoConn ~ 4950 1550
$Comp
L +3.3V #PWR052
U 1 1 4F882D47
P 4650 1400
F 0 "#PWR052" H 4650 1360 30  0001 C CNN
F 1 "+3.3V" H 4650 1510 30  0000 C CNN
	1    4650 1400
	1    0    0    -1  
$EndComp
$Comp
L GND #PWR053
U 1 1 4F882B8F
P 4250 2500
F 0 "#PWR053" H 4250 2500 30  0001 C CNN
F 1 "GND" H 4250 2430 30  0001 C CNN
	1    4250 2500
	1    0    0    -1  
$EndComp
$Comp
L GND #PWR054
U 1 1 4F882B8C
P 3650 2500
F 0 "#PWR054" H 3650 2500 30  0001 C CNN
F 1 "GND" H 3650 2430 30  0001 C CNN
	1    3650 2500
	1    0    0    -1  
$EndComp
$Comp
L C C10
U 1 1 4F882B70
P 4250 2250
F 0 "C10" H 4300 2350 50  0000 L CNN
F 1 "18P" H 4300 2150 50  0000 L CNN
	1    4250 2250
	1    0    0    -1  
$EndComp
$Comp
L C C6
U 1 1 4F882B6B
P 3650 2250
F 0 "C6" H 3700 2350 50  0000 L CNN
F 1 "18P" H 3700 2150 50  0000 L CNN
	1    3650 2250
	1    0    0    -1  
$EndComp
$Comp
L CRYSTAL X1
U 1 1 4F882B4C
P 3950 2050
F 0 "X1" H 3950 2200 60  0000 C CNN
F 1 "8M" H 3950 1900 60  0000 C CNN
	1    3950 2050
	1    0    0    -1  
$EndComp
Text Notes 650  3000 0    60   ~ 0
USB
$Comp
L GND #PWR055
U 1 1 4F880B45
P 1200 3800
F 0 "#PWR055" H 1200 3800 30  0001 C CNN
F 1 "GND" H 1200 3730 30  0001 C CNN
	1    1200 3800
	1    0    0    -1  
$EndComp
$Comp
L +3.3V #PWR056
U 1 1 4F880A4A
P 4950 800
F 0 "#PWR056" H 4950 760 30  0001 C CNN
F 1 "+3.3V" H 4950 910 30  0000 C CNN
	1    4950 800 
	1    0    0    -1  
$EndComp
$Comp
L GND #PWR057
U 1 1 4F880A3C
P 4950 1400
F 0 "#PWR057" H 4950 1400 30  0001 C CNN
F 1 "GND" H 4950 1330 30  0001 C CNN
	1    4950 1400
	1    0    0    -1  
$EndComp
Text Notes 4600 3200 0    60   ~ 0
BOOT1
$Comp
L GND #PWR058
U 1 1 4F880A09
P 4950 3200
F 0 "#PWR058" H 4950 3200 30  0001 C CNN
F 1 "GND" H 4950 3130 30  0001 C CNN
	1    4950 3200
	1    0    0    -1  
$EndComp
Text Notes 650  700  0    60   ~ 0
POWER SUPPLY
$EndSCHEMATC
