EESchema Schematic File Version 2  date Ma 18 sep 2012 16:51:46 +0300
LIBS:power
LIBS:device
LIBS:transistors
LIBS:conn
LIBS:linear
LIBS:regul
LIBS:74xx
LIBS:cmos4000
LIBS:adc-dac
LIBS:memory
LIBS:xilinx
LIBS:special
LIBS:microcontrollers
LIBS:dsp
LIBS:microchip
LIBS:analog_switches
LIBS:motorola
LIBS:texas
LIBS:intel
LIBS:audio
LIBS:interface
LIBS:digital-audio
LIBS:philips
LIBS:display
LIBS:cypress
LIBS:siliconi
LIBS:opto
LIBS:atmel
LIBS:contrib
LIBS:valves
LIBS:stm32f10xx8
LIBS:bd9134muv
LIBS:pinhead
LIBS:vbus053cz-haf
LIBS:con-cypressindustries
LIBS:DrumBrainLogic-cache
EELAYER 25  0
EELAYER END
$Descr A4 11700 8267
encoding utf-8
Sheet 1 1
Title ""
Date "18 sep 2012"
Rev ""
Comp ""
Comment1 ""
Comment2 ""
Comment3 ""
Comment4 ""
$EndDescr
Connection ~ 8900 2200
Wire Wire Line
	9300 2200 9300 1800
Wire Wire Line
	8650 2200 9300 2200
Wire Wire Line
	8650 2000 8800 2000
Wire Wire Line
	8800 2000 8800 1800
Wire Notes Line
	9400 4250 3500 4250
Wire Bus Line
	4650 4000 9250 4000
Wire Wire Line
	2100 3650 2000 3650
Wire Wire Line
	1200 3550 2000 3550
Wire Wire Line
	2000 3550 2000 3650
Wire Wire Line
	1200 3450 2000 3450
Wire Wire Line
	2000 3450 2000 3500
Wire Wire Line
	2000 3500 2100 3500
Wire Wire Line
	5250 3200 5250 3250
Wire Wire Line
	1200 3750 1200 3800
Connection ~ 3050 3650
Wire Wire Line
	3050 4050 3050 4100
Connection ~ 2750 3500
Wire Notes Line
	550  4250 550  2850
Wire Notes Line
	550  4250 3400 4250
Connection ~ 1750 3550
Wire Wire Line
	1700 3450 1700 2600
Wire Wire Line
	1700 2600 1850 2600
Wire Wire Line
	3250 2550 3250 2600
Wire Notes Line
	3400 2200 3400 550 
Wire Notes Line
	3400 2200 1450 2200
Wire Notes Line
	1450 2200 1450 2750
Wire Notes Line
	1450 2750 550  2750
Wire Wire Line
	5250 2100 5250 2150
Wire Wire Line
	11000 2050 10650 2050
Wire Wire Line
	10350 1950 10150 1950
Wire Wire Line
	5250 1300 3950 1300
Connection ~ 5250 1300
Wire Wire Line
	5250 1450 5250 1200
Wire Wire Line
	3150 3500 2600 3500
Connection ~ 1150 2000
Wire Bus Line
	9700 3550 9700 4050
Wire Wire Line
	9800 3850 10150 3850
Wire Wire Line
	10150 3650 9800 3650
Wire Wire Line
	9800 3450 10150 3450
Connection ~ 10550 3650
Wire Wire Line
	10450 3550 10550 3550
Connection ~ 10550 3850
Wire Wire Line
	10550 3750 10450 3750
Wire Wire Line
	10550 3950 10450 3950
Wire Wire Line
	10450 2800 10800 2800
Wire Wire Line
	10450 2600 10800 2600
Wire Wire Line
	9750 2800 10150 2800
Wire Wire Line
	9750 2600 10150 2600
Wire Wire Line
	10750 2400 10650 2400
Wire Wire Line
	10650 2400 10650 2500
Wire Wire Line
	10650 2500 10450 2500
Wire Wire Line
	10250 1000 10150 1000
Wire Wire Line
	10150 1000 10150 1050
Wire Wire Line
	10150 1050 9900 1050
Wire Bus Line
	10450 1550 10450 1050
Wire Wire Line
	9900 1550 10350 1550
Wire Wire Line
	9900 1350 10350 1350
Wire Wire Line
	9900 1150 10350 1150
Wire Notes Line
	9400 4250 9400 550 
Wire Bus Line
	4900 3800 4900 3900
Wire Wire Line
	5250 3700 5000 3700
Wire Wire Line
	8650 3800 8900 3800
Wire Wire Line
	8650 3600 8900 3600
Wire Wire Line
	8650 3300 8900 3300
Wire Wire Line
	5250 3500 4750 3500
Wire Wire Line
	8650 2600 9150 2600
Wire Wire Line
	8650 2300 9150 2300
Wire Bus Line
	9000 2000 9000 2100
Wire Wire Line
	8900 2100 8650 2100
Connection ~ 4850 1300
Wire Wire Line
	4850 1100 4850 1300
Connection ~ 4950 1950
Wire Wire Line
	5250 1800 5150 1800
Wire Wire Line
	5150 1800 5150 1950
Wire Wire Line
	5150 1950 4650 1950
Connection ~ 4950 1550
Wire Wire Line
	5250 1700 5150 1700
Wire Wire Line
	5150 1700 5150 1550
Wire Wire Line
	5150 1550 4650 1550
Wire Bus Line
	3250 3400 3250 3550
Connection ~ 4250 1300
Connection ~ 4250 900 
Wire Wire Line
	3950 900  5250 900 
Connection ~ 5250 900 
Wire Wire Line
	5250 2300 4750 2300
Wire Wire Line
	4750 2300 4750 2200
Wire Wire Line
	4750 2200 4150 2200
Wire Wire Line
	4150 2200 4150 2400
Wire Wire Line
	4750 2800 4750 2850
Wire Wire Line
	8650 1500 8950 1500
Wire Wire Line
	8650 1300 8950 1300
Wire Wire Line
	8650 1100 8950 1100
Wire Wire Line
	8950 900  8650 900 
Wire Wire Line
	5250 850  5250 1100
Connection ~ 5250 1000
Wire Wire Line
	3150 1900 3150 1950
Wire Notes Line
	550  2750 550  550 
Wire Wire Line
	2350 1300 2500 1300
Wire Wire Line
	2500 1300 2500 1350
Wire Wire Line
	2500 1350 3250 1350
Wire Wire Line
	3150 1500 3250 1500
Wire Wire Line
	2350 1500 2550 1500
Wire Wire Line
	2600 1200 2600 1250
Wire Wire Line
	2350 1200 2350 800 
Wire Wire Line
	2350 2000 2350 2050
Wire Wire Line
	850  1650 850  1600
Wire Wire Line
	1000 2600 1000 2550
Connection ~ 1150 1400
Connection ~ 2350 1600
Connection ~ 2350 1500
Connection ~ 1150 1300
Wire Wire Line
	1150 1200 850  1200
Connection ~ 850  1200
Wire Wire Line
	1150 1600 1000 1600
Wire Wire Line
	1000 1600 1000 1650
Wire Wire Line
	850  1200 850  1100
Wire Wire Line
	1450 800  1150 800 
Wire Wire Line
	1150 800  1150 1500
Connection ~ 1150 1200
Wire Wire Line
	1950 800  2600 800 
Connection ~ 2350 800 
Wire Wire Line
	2350 1400 2350 1800
Connection ~ 2350 1700
Wire Wire Line
	2550 1900 2350 1900
Wire Wire Line
	3250 1500 3250 1300
Connection ~ 3250 1350
Wire Notes Line
	550  550  3400 550 
Connection ~ 3050 1350
Connection ~ 2150 800 
Wire Bus Line
	9050 800  9050 1500
Wire Wire Line
	8950 1000 8650 1000
Wire Wire Line
	8650 1200 8950 1200
Wire Wire Line
	8650 1400 8950 1400
Wire Wire Line
	8650 1600 8950 1600
Wire Wire Line
	4750 2400 5250 2400
Wire Wire Line
	4150 2800 4150 2850
Connection ~ 4750 2400
Connection ~ 4550 900 
Connection ~ 4550 1300
Wire Wire Line
	4950 2000 4950 1950
Wire Wire Line
	8650 2500 9150 2500
Wire Wire Line
	5250 3400 4750 3400
Wire Wire Line
	8650 3200 8900 3200
Wire Wire Line
	8650 3500 8900 3500
Wire Wire Line
	8650 3700 8900 3700
Wire Bus Line
	9000 3100 9000 3700
Wire Wire Line
	5250 3800 5000 3800
Wire Bus Line
	4650 4000 4650 3500
Wire Bus Line
	9250 4000 9250 2400
Wire Notes Line
	3500 4250 3500 550 
Wire Wire Line
	9900 1250 10350 1250
Wire Wire Line
	9900 1450 10350 1450
Wire Wire Line
	10100 900  10100 950 
Wire Wire Line
	10100 950  9900 950 
Wire Wire Line
	9900 2400 9900 2500
Wire Wire Line
	9900 2500 10150 2500
Wire Bus Line
	9650 2700 9650 3150
Wire Bus Line
	9650 3150 10900 3150
Wire Bus Line
	10900 3150 10900 2700
Wire Wire Line
	9750 2700 10150 2700
Wire Wire Line
	9750 2900 10150 2900
Wire Wire Line
	10450 2700 10800 2700
Wire Wire Line
	10450 2900 10800 2900
Wire Wire Line
	10550 3850 10450 3850
Connection ~ 10550 3950
Wire Wire Line
	10550 3650 10450 3650
Connection ~ 10550 3750
Wire Wire Line
	10450 3450 10550 3450
Wire Wire Line
	10550 3450 10550 4100
Connection ~ 10550 3550
Wire Wire Line
	10150 3550 9800 3550
Wire Wire Line
	9800 3750 10150 3750
Wire Wire Line
	9800 3950 10150 3950
Wire Wire Line
	1150 1800 1150 2100
Connection ~ 1150 1900
Wire Wire Line
	2600 3650 3150 3650
Connection ~ 5250 1400
Wire Wire Line
	10650 1950 10850 1950
Wire Wire Line
	10850 1950 10850 1900
Wire Wire Line
	10850 1900 10950 1900
Wire Wire Line
	10150 1950 10150 1900
Wire Wire Line
	10350 2050 10150 2050
Wire Wire Line
	10150 2050 10150 2250
Wire Wire Line
	10150 2250 11000 2250
Wire Bus Line
	11100 2250 11100 2050
Wire Notes Line
	9500 4250 9500 550 
Wire Wire Line
	3250 3000 3250 3050
Wire Wire Line
	1750 3550 1750 2800
Wire Wire Line
	1750 2800 1850 2800
Connection ~ 1700 3450
Wire Notes Line
	550  2850 1550 2850
Wire Notes Line
	1550 2850 1550 2300
Wire Notes Line
	1550 2300 3400 2300
Wire Notes Line
	3400 2300 3400 4250
Wire Wire Line
	2750 3900 2750 3950
Wire Wire Line
	1200 3300 1200 3350
Wire Wire Line
	1200 3350 1350 3350
Wire Notes Line
	9500 4250 11200 4250
Wire Notes Line
	11200 4250 11200 550 
Wire Notes Line
	3500 550  9400 550 
Wire Notes Line
	11200 550  9500 550 
$Comp
L R R5
U 1 1 50587BA9
P 9050 1800
F 0 "R5" V 9130 1800 50  0000 C CNN
F 1 "1K5" V 9050 1800 50  0000 C CNN
	1    9050 1800
	0    -1   -1   0   
$EndComp
NoConn ~ 1200 3650
NoConn ~ 1850 3000
$Comp
L STM32F10XX8 UC1
U 1 1 4F83FBC6
P 6150 2350
F 0 "UC1" H 6150 2500 60  0000 C CNN
F 1 "STM32F10XX8" H 6100 3900 60  0000 C CNN
	1    6150 2350
	1    0    0    -1  
$EndComp
$Comp
L PWR_FLAG #FLG01
U 1 1 4F8E56BB
P 1350 3350
F 0 "#FLG01" H 1350 3445 30  0001 C CNN
F 1 "PWR_FLAG" H 1350 3530 30  0000 C CNN
	1    1350 3350
	1    0    0    -1  
$EndComp
$Comp
L GND #PWR02
U 1 1 4F8E5534
P 3050 4100
F 0 "#PWR02" H 3050 4100 30  0001 C CNN
F 1 "GND" H 3050 4030 30  0001 C CNN
	1    3050 4100
	1    0    0    -1  
$EndComp
$Comp
L GND #PWR03
U 1 1 4F8E552C
P 2750 3950
F 0 "#PWR03" H 2750 3950 30  0001 C CNN
F 1 "GND" H 2750 3880 30  0001 C CNN
	1    2750 3950
	1    0    0    -1  
$EndComp
$Comp
L C C15
U 1 1 4F8E5500
P 3050 3850
F 0 "C15" H 3100 3950 50  0000 L CNN
F 1 "48P" H 3100 3750 50  0000 L CNN
	1    3050 3850
	1    0    0    -1  
$EndComp
$Comp
L C C14
U 1 1 4F8E54F5
P 2750 3700
F 0 "C14" H 2800 3800 50  0000 L CNN
F 1 "48P" H 2800 3600 50  0000 L CNN
	1    2750 3700
	1    0    0    -1  
$EndComp
$Comp
L +5V #PWR04
U 1 1 4F8E51B2
P 3250 2550
F 0 "#PWR04" H 3250 2640 20  0001 C CNN
F 1 "+5V" H 3250 2640 30  0000 C CNN
	1    3250 2550
	1    0    0    -1  
$EndComp
$Comp
L GND #PWR05
U 1 1 4F8E51A7
P 3250 3050
F 0 "#PWR05" H 3250 3050 30  0001 C CNN
F 1 "GND" H 3250 2980 30  0001 C CNN
	1    3250 3050
	1    0    0    -1  
$EndComp
$Comp
L VBUS053CZ-HAF U2
U 1 1 4F8E514A
P 2450 3050
F 0 "U2" H 2425 2950 60  0000 C CNN
F 1 "VBUS053CZ-HAF" H 2525 3650 60  0000 C CNN
	1    2450 3050
	1    0    0    -1  
$EndComp
$Comp
L MINI-USB-UX60-MB-5S8 X2
U 1 1 4F8D397B
P 1000 3550
F 0 "X2" H 1100 3950 50  0000 L BNN
F 1 "MINI-USB" H 900 3100 50  0000 L BNN
F 2 "con-hirose-UX60-MB-5S8" H 1000 3700 50  0001 C CNN
	1    1000 3550
	-1   0    0    -1  
$EndComp
$Comp
L C C13
U 1 1 4F8D34ED
P 5050 1100
F 0 "C13" V 5150 1200 50  0000 L CNN
F 1 "4.7U" V 4900 1100 50  0000 L CNN
	1    5050 1100
	0    -1   -1   0   
$EndComp
$Comp
L C C8
U 1 1 4F8D34DF
P 4650 1750
F 0 "C8" H 4700 1850 50  0000 L CNN
F 1 "1U" H 4700 1650 50  0000 L CNN
	1    4650 1750
	1    0    0    -1  
$EndComp
$Comp
L GND #PWR06
U 1 1 4F89A7D6
P 10750 2400
F 0 "#PWR06" H 10750 2400 30  0001 C CNN
F 1 "GND" H 10750 2330 30  0001 C CNN
	1    10750 2400
	0    -1   -1   0   
$EndComp
Text Notes 10550 1400 1    60   ~ 0
JTAG
NoConn ~ 8650 1900
Text Notes 9600 700  0    60   ~ 0
CONNECTORS
Text Label 10800 2250 0    60   ~ 0
SDA
Text Label 10800 2050 0    60   ~ 0
SCL
Entry Wire Line
	11000 2050 11100 2150
Entry Wire Line
	11000 2250 11100 2150
$Comp
L GND #PWR07
U 1 1 4F89AB68
P 10950 1900
F 0 "#PWR07" H 10950 1900 30  0001 C CNN
F 1 "GND" H 10950 1830 30  0001 C CNN
	1    10950 1900
	0    -1   -1   0   
$EndComp
$Comp
L +3.3V #PWR08
U 1 1 4F89AB64
P 10150 1900
F 0 "#PWR08" H 10150 1860 30  0001 C CNN
F 1 "+3.3V" H 10150 2010 30  0000 C CNN
	1    10150 1900
	1    0    0    -1  
$EndComp
$Comp
L PINHD-2X2 JP5
U 1 1 4F89AB5E
P 10550 2050
F 0 "JP5" H 10000 2050 50  0000 L BNN
F 1 "I2C" H 10650 2300 50  0000 L BNN
F 2 "pinhead-2X02" H 10550 2200 50  0001 C CNN
	1    10550 2050
	1    0    0    -1  
$EndComp
Text Notes 9700 4150 1    60   ~ 0
ON/OFF IN SWITCHES
Text Label 9800 3950 0    60   ~ 0
SW5
Text Label 9800 3850 0    60   ~ 0
SW4
Text Label 9800 3750 0    60   ~ 0
SW3
Text Label 9800 3650 0    60   ~ 0
SW2
Text Label 9800 3550 0    60   ~ 0
SW1
Text Label 9800 3450 0    60   ~ 0
SW0
$Comp
L GND #PWR09
U 1 1 4F89A929
P 10550 4100
F 0 "#PWR09" H 10550 4100 30  0001 C CNN
F 1 "GND" H 10550 4030 30  0001 C CNN
	1    10550 4100
	1    0    0    -1  
$EndComp
Entry Wire Line
	9700 4050 9800 3950
Entry Wire Line
	9700 3950 9800 3850
Entry Wire Line
	9700 3850 9800 3750
Entry Wire Line
	9700 3750 9800 3650
Entry Wire Line
	9700 3650 9800 3550
Entry Wire Line
	9700 3550 9800 3450
Text Notes 9150 1450 1    60   ~ 0
ANALOG IN
$Comp
L PINHD-2X6 JP4
U 1 1 4F89A8BC
P 10350 3650
F 0 "JP4" H 10100 3975 50  0000 L BNN
F 1 "DIGITAL_IN" H 10300 3150 50  0000 L BNN
F 2 "pinhead-2X06" H 10350 3800 50  0001 C CNN
	1    10350 3650
	-1   0    0    -1  
$EndComp
Text Label 10600 2900 0    60   ~ 0
ADC7
Text Label 9750 2900 0    60   ~ 0
ADC6
Text Label 10600 2800 0    60   ~ 0
ADC5
Text Label 9750 2800 0    60   ~ 0
ADC4
Text Label 10600 2700 0    60   ~ 0
ADC3
Text Label 9750 2700 0    60   ~ 0
ADC2
Text Label 10600 2600 0    60   ~ 0
ADC1
Text Label 9750 2600 0    60   ~ 0
ADC0
Entry Wire Line
	10800 2900 10900 3000
Entry Wire Line
	10800 2800 10900 2900
Entry Wire Line
	10800 2700 10900 2800
Entry Wire Line
	10800 2600 10900 2700
Entry Wire Line
	9650 3000 9750 2900
Entry Wire Line
	9650 2900 9750 2800
Entry Wire Line
	9650 2800 9750 2700
Entry Wire Line
	9650 2700 9750 2600
$Comp
L +3.3V #PWR010
U 1 1 4F89A7D1
P 9900 2400
F 0 "#PWR010" H 9900 2360 30  0001 C CNN
F 1 "+3.3V" H 9900 2510 30  0000 C CNN
	1    9900 2400
	1    0    0    -1  
$EndComp
$Comp
L PINHD-2X5 JP3
U 1 1 4F89A734
P 10250 2700
F 0 "JP3" H 10000 3025 50  0000 L BNN
F 1 "ANALOG_IN" H 10000 2300 50  0000 L BNN
F 2 "pinhead-2X05" H 10250 2850 50  0001 C CNN
	1    10250 2700
	1    0    0    -1  
$EndComp
$Comp
L GND #PWR011
U 1 1 4F89A6F5
P 10250 1000
F 0 "#PWR011" H 10250 1000 30  0001 C CNN
F 1 "GND" H 10250 930 30  0001 C CNN
	1    10250 1000
	0    -1   -1   0   
$EndComp
$Comp
L +3.3V #PWR012
U 1 1 4F89A6EB
P 10100 900
F 0 "#PWR012" H 10100 860 30  0001 C CNN
F 1 "+3.3V" H 10100 1010 30  0000 C CNN
	1    10100 900 
	1    0    0    -1  
$EndComp
Text Notes 10100 1700 0    60   ~ 0
NRST (NC)
NoConn ~ 9900 1650
Text Label 10100 1150 0    60   ~ 0
JTRST
Text Label 10100 1550 0    60   ~ 0
JTMS
Text Label 10100 1250 0    60   ~ 0
JTDO
Text Label 10100 1350 0    60   ~ 0
JTDI
Text Label 10100 1450 0    60   ~ 0
JTCK
Entry Wire Line
	10350 1550 10450 1450
Entry Wire Line
	10350 1450 10450 1350
Entry Wire Line
	10350 1350 10450 1250
Entry Wire Line
	10350 1250 10450 1150
Entry Wire Line
	10350 1150 10450 1050
$Comp
L PINHD-1X8 JP2
U 1 1 4F89A5CA
P 9800 1350
F 0 "JP2" H 9700 1900 50  0000 L BNN
F 1 "JTAG" V 10000 1350 50  0000 L BNN
F 2 "pinhead-1X08" H 9800 1500 50  0001 C CNN
	1    9800 1350
	-1   0    0    -1  
$EndComp
Text Notes 3600 700  0    60   ~ 0
LOGIC
NoConn ~ 5250 3600
NoConn ~ 8650 1800
NoConn ~ 5250 3100
NoConn ~ 5250 3000
NoConn ~ 5250 2800
NoConn ~ 5250 2700
NoConn ~ 5250 2600
Text Notes 5700 4000 0    60   ~ 0
JTAG
Text Notes 4900 3900 1    60   ~ 0
I2C
Text Notes 9100 3750 1    60   ~ 0
ON/OFF IN SWITCHES
Text Notes 9100 2200 1    60   ~ 0
USB
Text Label 5000 3800 0    60   ~ 0
SDA
Text Label 5000 3700 0    60   ~ 0
SCL
Entry Wire Line
	4900 3900 5000 3800
Entry Wire Line
	4900 3800 5000 3700
NoConn ~ 8650 3000
NoConn ~ 8650 2900
Text Label 8700 3800 0    60   ~ 0
SW5
Text Label 8700 3700 0    60   ~ 0
SW4
Text Label 8700 3600 0    60   ~ 0
SW3
Text Label 8700 3500 0    60   ~ 0
SW2
Text Label 8700 3300 0    60   ~ 0
SW1
Text Label 8700 3200 0    60   ~ 0
SW0
Entry Wire Line
	8900 3800 9000 3700
Entry Wire Line
	8900 3700 9000 3600
Entry Wire Line
	8900 3600 9000 3500
Entry Wire Line
	8900 3200 9000 3100
Entry Wire Line
	8900 3300 9000 3200
Entry Wire Line
	8900 3500 9000 3400
Text Label 4750 3500 0    60   ~ 0
JTRST
Text Label 4750 3400 0    60   ~ 0
JTDO
Entry Wire Line
	4650 3600 4750 3500
Entry Wire Line
	4650 3500 4750 3400
Text Label 8700 2600 0    60   ~ 0
JTDI
Text Label 8700 2500 0    60   ~ 0
JTCK
Text Label 8700 2300 0    60   ~ 0
JTMS
Entry Wire Line
	9150 2600 9250 2700
Entry Wire Line
	9150 2500 9250 2600
Entry Wire Line
	9150 2300 9250 2400
Text Label 8700 2200 0    60   ~ 0
D+
Text Label 8700 2100 0    60   ~ 0
D-
Entry Wire Line
	8900 2200 9000 2100
Entry Wire Line
	8900 2100 9000 2000
$Comp
L GND #PWR013
U 1 1 4F894FE3
P 5250 2150
F 0 "#PWR013" H 5250 2150 30  0001 C CNN
F 1 "GND" H 5250 2080 30  0001 C CNN
	1    5250 2150
	1    0    0    -1  
$EndComp
$Comp
L GND #PWR014
U 1 1 4F8830C9
P 4950 2000
F 0 "#PWR014" H 4950 2000 30  0001 C CNN
F 1 "GND" H 4950 1930 30  0001 C CNN
	1    4950 2000
	1    0    0    -1  
$EndComp
NoConn ~ 5250 2000
$Comp
L C C11
U 1 1 4F88304E
P 4950 1750
F 0 "C11" H 5000 1850 50  0000 L CNN
F 1 "10N" H 5000 1650 50  0000 L CNN
	1    4950 1750
	1    0    0    -1  
$EndComp
Text Label 3050 3500 0    60   ~ 0
D-
Text Label 3050 3650 0    60   ~ 0
D+
Entry Wire Line
	3150 3650 3250 3550
Entry Wire Line
	3150 3500 3250 3400
$Comp
L R R4
U 1 1 4F882FFD
P 2350 3650
F 0 "R4" V 2430 3650 50  0000 C CNN
F 1 "22" V 2350 3650 50  0000 C CNN
	1    2350 3650
	0    -1   -1   0   
$EndComp
$Comp
L R R3
U 1 1 4F882FEA
P 2350 3500
F 0 "R3" V 2430 3500 50  0000 C CNN
F 1 "22" V 2350 3500 50  0000 C CNN
	1    2350 3500
	0    -1   -1   0   
$EndComp
$Comp
L C C12
U 1 1 4F882F00
P 4550 1100
F 0 "C12" H 4600 1200 50  0000 L CNN
F 1 "100N" H 4600 1000 50  0000 L CNN
	1    4550 1100
	1    0    0    -1  
$EndComp
$Comp
L C C9
U 1 1 4F882EFB
P 4250 1100
F 0 "C9" H 4300 1200 50  0000 L CNN
F 1 "100N" H 4300 1000 50  0000 L CNN
	1    4250 1100
	1    0    0    -1  
$EndComp
$Comp
L C C7
U 1 1 4F882EBF
P 3950 1100
F 0 "C7" H 4000 1200 50  0000 L CNN
F 1 "100N" H 4000 1000 50  0000 L CNN
	1    3950 1100
	1    0    0    -1  
$EndComp
NoConn ~ 5250 1600
$Comp
L +3.3V #PWR015
U 1 1 4F882D47
P 4950 1550
F 0 "#PWR015" H 4950 1510 30  0001 C CNN
F 1 "+3.3V" H 4950 1660 30  0000 C CNN
	1    4950 1550
	1    0    0    -1  
$EndComp
$Comp
L GND #PWR016
U 1 1 4F882B8F
P 4750 2850
F 0 "#PWR016" H 4750 2850 30  0001 C CNN
F 1 "GND" H 4750 2780 30  0001 C CNN
	1    4750 2850
	1    0    0    -1  
$EndComp
$Comp
L GND #PWR017
U 1 1 4F882B8C
P 4150 2850
F 0 "#PWR017" H 4150 2850 30  0001 C CNN
F 1 "GND" H 4150 2780 30  0001 C CNN
	1    4150 2850
	1    0    0    -1  
$EndComp
$Comp
L C C10
U 1 1 4F882B70
P 4750 2600
F 0 "C10" H 4800 2700 50  0000 L CNN
F 1 "18P" H 4800 2500 50  0000 L CNN
	1    4750 2600
	1    0    0    -1  
$EndComp
$Comp
L C C6
U 1 1 4F882B6B
P 4150 2600
F 0 "C6" H 4200 2700 50  0000 L CNN
F 1 "18P" H 4200 2500 50  0000 L CNN
	1    4150 2600
	1    0    0    -1  
$EndComp
$Comp
L CRYSTAL X1
U 1 1 4F882B4C
P 4450 2400
F 0 "X1" H 4450 2550 60  0000 C CNN
F 1 "8M" H 4450 2250 60  0000 C CNN
	1    4450 2400
	1    0    0    -1  
$EndComp
Text Notes 650  3000 0    60   ~ 0
USB
$Comp
L +5V #PWR018
U 1 1 4F880B61
P 1200 3300
F 0 "#PWR018" H 1200 3390 20  0001 C CNN
F 1 "+5V" H 1200 3390 30  0000 C CNN
	1    1200 3300
	1    0    0    -1  
$EndComp
$Comp
L GND #PWR019
U 1 1 4F880B45
P 1200 3800
F 0 "#PWR019" H 1200 3800 30  0001 C CNN
F 1 "GND" H 1200 3730 30  0001 C CNN
	1    1200 3800
	1    0    0    -1  
$EndComp
Text Label 8700 1600 0    60   ~ 0
ADC7
Text Label 8700 1500 0    60   ~ 0
ADC6
Text Label 8700 1400 0    60   ~ 0
ADC5
Text Label 8700 1300 0    60   ~ 0
ADC4
Text Label 8700 1200 0    60   ~ 0
ADC3
Text Label 8700 1100 0    60   ~ 0
ADC2
Text Label 8700 1000 0    60   ~ 0
ADC1
Text Label 8700 900  0    60   ~ 0
ADC0
Entry Wire Line
	8950 1500 9050 1400
Entry Wire Line
	8950 1400 9050 1300
Entry Wire Line
	8950 1300 9050 1200
Entry Wire Line
	8950 1200 9050 1100
Entry Wire Line
	8950 1100 9050 1000
Entry Wire Line
	8950 1000 9050 900 
Entry Wire Line
	8950 900  9050 800 
Entry Wire Line
	8950 1600 9050 1500
$Comp
L +3.3V #PWR020
U 1 1 4F880A4A
P 5250 850
F 0 "#PWR020" H 5250 810 30  0001 C CNN
F 1 "+3.3V" H 5250 960 30  0000 C CNN
	1    5250 850 
	1    0    0    -1  
$EndComp
$Comp
L GND #PWR021
U 1 1 4F880A3C
P 5250 1450
F 0 "#PWR021" H 5250 1450 30  0001 C CNN
F 1 "GND" H 5250 1380 30  0001 C CNN
	1    5250 1450
	1    0    0    -1  
$EndComp
Text Notes 4900 3250 0    60   ~ 0
BOOT1
$Comp
L GND #PWR022
U 1 1 4F880A09
P 5250 3250
F 0 "#PWR022" H 5250 3250 30  0001 C CNN
F 1 "GND" H 5250 3180 30  0001 C CNN
	1    5250 3250
	1    0    0    -1  
$EndComp
$Comp
L C C5
U 1 1 4F880095
P 3150 1700
F 0 "C5" H 3200 1800 50  0000 L CNN
F 1 "22U" H 3200 1600 50  0000 L CNN
	1    3150 1700
	1    0    0    -1  
$EndComp
$Comp
L PWR_FLAG #FLG023
U 1 1 4F8804AF
P 2150 800
F 0 "#FLG023" H 2150 895 30  0001 C CNN
F 1 "PWR_FLAG" H 2150 980 30  0000 C CNN
	1    2150 800 
	-1   0    0    1   
$EndComp
$Comp
L PWR_FLAG #FLG024
U 1 1 4F880298
P 3050 1350
F 0 "#FLG024" H 3050 1445 30  0001 C CNN
F 1 "PWR_FLAG" H 3050 1530 30  0000 C CNN
	1    3050 1350
	1    0    0    -1  
$EndComp
Text Notes 650  700  0    60   ~ 0
5V -> 3.3V
$Comp
L +3.3V #PWR025
U 1 1 4F8801CD
P 3250 1300
F 0 "#PWR025" H 3250 1260 30  0001 C CNN
F 1 "+3.3V" H 3250 1410 30  0000 C CNN
	1    3250 1300
	1    0    0    -1  
$EndComp
$Comp
L BD9134MUV U1
U 1 1 4F880147
P 1750 1400
F 0 "U1" H 1750 1250 60  0000 C CNN
F 1 "BD9134MUV" H 1750 1700 60  0000 C CNN
	1    1750 1400
	1    0    0    -1  
$EndComp
$Comp
L GND #PWR026
U 1 1 4F880098
P 3150 1950
F 0 "#PWR026" H 3150 1950 30  0001 C CNN
F 1 "GND" H 3150 1880 30  0001 C CNN
	1    3150 1950
	1    0    0    -1  
$EndComp
$Comp
L INDUCTOR L1
U 1 1 4F87FFA6
P 2850 1500
F 0 "L1" V 2800 1500 40  0000 C CNN
F 1 "2.2U" V 2950 1500 40  0000 C CNN
	1    2850 1500
	0    -1   -1   0   
$EndComp
$Comp
L C C3
U 1 1 4F87FF47
P 2550 1700
F 0 "C3" H 2600 1800 50  0000 L CNN
F 1 "100N" H 2600 1600 50  0000 L CNN
	1    2550 1700
	1    0    0    -1  
$EndComp
$Comp
L GND #PWR027
U 1 1 4F87FF2D
P 2600 1250
F 0 "#PWR027" H 2600 1250 30  0001 C CNN
F 1 "GND" H 2600 1180 30  0001 C CNN
	1    2600 1250
	1    0    0    -1  
$EndComp
$Comp
L C C4
U 1 1 4F87FF24
P 2600 1000
F 0 "C4" H 2650 1100 50  0000 L CNN
F 1 "1N" H 2650 900 50  0000 L CNN
	1    2600 1000
	1    0    0    -1  
$EndComp
$Comp
L R R2
U 1 1 4F87FED0
P 1700 800
F 0 "R2" V 1780 800 50  0000 C CNN
F 1 "10" V 1700 800 50  0000 C CNN
	1    1700 800 
	0    -1   -1   0   
$EndComp
$Comp
L GND #PWR028
U 1 1 4F87FEAA
P 2350 2050
F 0 "#PWR028" H 2350 2050 30  0001 C CNN
F 1 "GND" H 2350 1980 30  0001 C CNN
	1    2350 2050
	1    0    0    -1  
$EndComp
$Comp
L GND #PWR029
U 1 1 4F87FE99
P 1150 2100
F 0 "#PWR029" H 1150 2100 30  0001 C CNN
F 1 "GND" H 1150 2030 30  0001 C CNN
	1    1150 2100
	1    0    0    -1  
$EndComp
$Comp
L GND #PWR030
U 1 1 4F87FE65
P 1000 2600
F 0 "#PWR030" H 1000 2600 30  0001 C CNN
F 1 "GND" H 1000 2530 30  0001 C CNN
	1    1000 2600
	1    0    0    -1  
$EndComp
$Comp
L R R1
U 1 1 4F87FE4F
P 1000 1900
F 0 "R1" V 1080 1900 50  0000 C CNN
F 1 "5.1K" V 1000 1900 50  0000 C CNN
	1    1000 1900
	1    0    0    -1  
$EndComp
$Comp
L C C2
U 1 1 4F87FE3F
P 1000 2350
F 0 "C2" H 1050 2450 50  0000 L CNN
F 1 "1.5N" H 1050 2250 50  0000 L CNN
	1    1000 2350
	1    0    0    -1  
$EndComp
$Comp
L GND #PWR031
U 1 1 4F87FDFB
P 850 1650
F 0 "#PWR031" H 850 1650 30  0001 C CNN
F 1 "GND" H 850 1580 30  0001 C CNN
	1    850  1650
	1    0    0    -1  
$EndComp
$Comp
L +5V #PWR032
U 1 1 4F87FDCA
P 850 1100
F 0 "#PWR032" H 850 1190 20  0001 C CNN
F 1 "+5V" H 850 1190 30  0000 C CNN
	1    850  1100
	1    0    0    -1  
$EndComp
$Comp
L C C1
U 1 1 4F87FD97
P 850 1400
F 0 "C1" H 900 1500 50  0000 L CNN
F 1 "22U" H 900 1300 50  0000 L CNN
	1    850  1400
	1    0    0    -1  
$EndComp
$EndSCHEMATC
