PCBNEW-LibModule-V1  Mi 18 apr 2012 08:41:04 +0300
# encoding utf-8
$INDEX
LLP75-7L
$EndINDEX
$MODULE LLP75-7L
Po 0 0 0 15 4F8DC447 00000000 ~~
Li LLP75-7L
Sc 00000000
AR LLP75-7L
Op 0 0 0
T0 0 -354 79 79 0 8 N V 21 N "LLP75-7L"
T1 0 394 79 79 0 8 N V 21 N "VAL**"
DC -275 -236 -236 -236 8 21
DS 354 -315 -354 -315 8 21
DS -354 -315 -354 315 8 21
DS -354 315 354 315 8 21
DS 354 315 354 -315 8 21
$PAD
Sh "7" R 197 394 0 0 0
Dr 0 0 0
At SMD N 00888000
Ne 0 ""
Po 0 0
.LocalClearance 20
$EndPAD
$PAD
Sh "1" R 118 98 0 0 0
Dr 0 0 0
At SMD N 00888000
Ne 0 ""
Po -256 -197
.LocalClearance 20
$EndPAD
$PAD
Sh "2" R 118 98 0 0 0
Dr 0 0 0
At SMD N 00888000
Ne 0 ""
Po -256 0
.LocalClearance 20
$EndPAD
$PAD
Sh "3" R 118 98 0 0 0
Dr 0 0 0
At SMD N 00888000
Ne 0 ""
Po -256 197
.LocalClearance 20
$EndPAD
$PAD
Sh "4" R 118 98 0 0 0
Dr 0 0 0
At SMD N 00888000
Ne 0 ""
Po 256 197
.LocalClearance 20
$EndPAD
$PAD
Sh "5" R 118 98 0 0 0
Dr 0 0 0
At SMD N 00888000
Ne 0 ""
Po 256 0
.LocalClearance 20
$EndPAD
$PAD
Sh "6" R 118 98 0 0 0
Dr 0 0 0
At SMD N 00888000
Ne 0 ""
Po 256 -197
.LocalClearance 20
$EndPAD
$EndMODULE  LLP75-7L
$EndLIBRARY
