PCBNEW-LibModule-V1  Jo 19 apr 2012 09:46:39 +0300
# encoding utf-8
$INDEX
MC32599
$EndINDEX
$MODULE MC32599
Po 0 0 0 15 4F8FB483 00000000 ~~
Li MC32599
Cd MINI USB-B R/A DIP
Kw MINI USB-B R/A DIP
Sc 00000000
AR con-cypressindustries-32005-601
Op 0 0 0
At VIRTUAL 
T0 -370 -2803 500 500 0 35 N V 21 N ">NAME"
T1 -231 2841 500 500 0 35 N V 21 N ">VALUE"
DS -3433 -1514 43 -1514 40 21
DS 55 -1494 55 -1023 40 21
DS 55 -1023 -390 -1023 40 21
DS 43 1514 -3433 1514 40 21
DS -3433 1514 -3433 -1514 40 21
DS 62 1504 62 1062 40 21
DS 62 1062 -390 1062 40 21
DS -3432 -1512 -2632 -1512 40 21
DS -3432 1512 -3432 1512 40 21
DS -3432 1512 -3432 -1512 40 21
DS -1817 -1165 -2900 -1083 40 21
DS -2900 -694 -1817 -592 40 21
DS -1817 -592 -1817 -674 40 21
DS -1817 -674 -2757 -776 40 21
DS -2757 -776 -2757 -981 40 21
DS -2757 -981 -1817 -1083 40 21
DS -1817 -1083 -1817 -1165 40 21
DS -2900 -490 -1306 -408 40 21
DS -2982 -408 -2982 -408 40 21
DS -2900 -327 -1551 -245 40 21
DS -3432 1512 -2632 1512 40 21
DS -1817 1164 -2900 1083 40 21
DS -2900 694 -1817 592 40 21
DS -1817 592 -1817 674 40 21
DS -1817 674 -2757 776 40 21
DS -2757 776 -2757 980 40 21
DS -2757 980 -1817 1083 40 21
DS -1817 1083 -1817 1164 40 21
DS -2900 490 -1306 408 40 21
DS -1224 326 -1224 -327 40 21
DS -2900 326 -1551 245 40 21
DS -1551 245 -1551 -245 40 21
DS -3432 1512 -2603 1512 40 21
DS -3432 -1512 -2623 -1512 40 21
DS 33 1514 -1349 1514 40 21
DS -1358 -1514 13 -1514 40 21
DS -1781 -1240 -2174 -1240 1 21
DS -2174 -1633 -1781 -1633 1 21
DS -1781 1633 -2174 1633 1 21
DS -2174 1240 -1702 1240 1 21
DS -390 -1025 -390 1061 40 21
DA -2891 -967 -3002 -1001 686 40 21
DA -2636 -889 -3002 -776 340 40 21
DA -2891 -810 -2900 -694 686 40 21
DA -1311 -322 -1306 -408 837 40 21
DA -2900 -408 -2982 -408 900 40 21
DA -2900 -408 -2900 -327 900 40 21
DA -2891 967 -2900 1083 686 40 21
DA -2636 889 -3002 1001 340 40 21
DA -2891 810 -3002 776 686 40 21
DA -1311 322 -1224 326 837 40 21
DA -2900 408 -2900 490 900 40 21
DA -2900 408 -2982 408 900 40 21
DA -1781 -1437 -1781 -1633 900 1 21
DA -1781 -1437 -1584 -1437 900 1 21
DA -2174 -1437 -2174 -1240 900 1 21
DA -2174 -1437 -2371 -1437 900 1 21
DA -1741 1397 -1702 1240 900 1 21
DA -1781 1437 -1584 1437 900 1 21
DA -2174 1437 -2174 1633 900 1 21
DA -2174 1437 -2371 1437 900 1 21
$PAD
Sh "1" C 400 400 0 0 0
Dr 197 0 0
At STD N 00A8FFFF
Ne 0 ""
Po 10 -629
$EndPAD
$PAD
Sh "2" C 400 400 0 0 0
Dr 197 0 0
At STD N 00A8FFFF
Ne 0 ""
Po -472 -354
$EndPAD
$PAD
Sh "3" C 400 400 0 0 0
Dr 197 0 0
At STD N 00A8FFFF
Ne 0 ""
Po 10 0
$EndPAD
$PAD
Sh "4" C 400 400 0 0 0
Dr 197 0 0
At STD N 00A8FFFF
Ne 0 ""
Po -472 354
$EndPAD
$PAD
Sh "5" C 400 400 0 0 0
Dr 197 0 0
At STD N 00A8FFFF
Ne 0 ""
Po 10 629
$EndPAD
$PAD
Sh "M1" C 560 560 0 0 0
Dr 393 0 0
At STD N 00A8FFFF
Ne 0 ""
Po -354 -1417
$EndPAD
$PAD
Sh "M2" C 560 560 0 0 0
Dr 393 0 0
At STD N 00A8FFFF
Ne 0 ""
Po -354 1417
$EndPAD
$PAD
Sh "M3" O 560 1120 0 0 0
Dr 393 0 0
At STD N 00A8FFFF
Ne 0 ""
Po -2185 -1417
$EndPAD
$PAD
Sh "M4" O 560 1120 0 0 0
Dr 393 0 0
At STD N 00A8FFFF
Ne 0 ""
Po -2185 1417
$EndPAD
$EndMODULE  MC32599
$EndLIBRARY
