PCBNEW-LibModule-V1  Du 15 apr 2012 13:54:18 +0300
# encoding utf-8
$INDEX
SM1210
SM1515
$EndINDEX
$MODULE SM1210
Po 0 0 0 15 4F8AA85E 4F8AA83F ~~
Li SM1210
Kw CMS SM
Sc 4F8AA83F
AR
Op 0 0 0
At SMD
T0 0 -200 300 300 0 50 N V 21 N "SM1515"
T1 0 200 300 300 0 50 N V 21 N "Val**"
DS 354 -945 1181 -945 150 21
DS 1181 -945 1181 945 150 21
DS 1181 945 354 945 150 21
DS -354 -945 -1181 -945 150 21
DS -1181 -945 -1181 945 150 21
DS -1181 945 -354 945 150 21
$PAD
Sh "1" R 551 1575 0 0 0
Dr 0 0 0
At SMD N 00888000
Ne 0 ""
Po -748 0
$EndPAD
$PAD
Sh "2" R 551 1575 0 0 0
Dr 0 0 0
At SMD N 00888000
Ne 0 ""
Po 748 0
$EndPAD
$SHAPE3D
Na "smd/chip_cms.wrl"
Sc 0.170000 0.200000 0.170000
Of 0.000000 0.000000 0.000000
Ro 0.000000 0.000000 0.000000
$EndSHAPE3D
$EndMODULE  SM1210
$MODULE SM1515
Po 0 0 0 15 4F8AA85E 00000000 ~~
Li SM1515
Kw CMS SM
Sc 00000000
AR 
Op 0 0 0
At SMD 
T0 0 -200 300 300 0 50 N V 21 N "SM1515"
T1 0 200 300 300 0 50 N V 21 N "Val**"
DS 354 -945 1181 -945 150 21
DS 1181 -945 1181 945 150 21
DS 1181 945 354 945 150 21
DS -354 -945 -1181 -945 150 21
DS -1181 -945 -1181 945 150 21
DS -1181 945 -354 945 150 21
$PAD
Sh "1" R 551 1575 0 0 0
Dr 0 0 0
At SMD N 00888000
Ne 0 ""
Po -748 0
$EndPAD
$PAD
Sh "2" R 551 1575 0 0 0
Dr 0 0 0
At SMD N 00888000
Ne 0 ""
Po 748 0
$EndPAD
$SHAPE3D
Na "smd/chip_cms.wrl"
Sc 0.170000 0.200000 0.170000
Of 0.000000 0.000000 0.000000
Ro 0.000000 0.000000 0.000000
$EndSHAPE3D
$EndMODULE  SM1515
$EndLIBRARY
