PCBNEW-LibModule-V1
$INDEX
LOGO
$EndINDEX
#
# LOGO
# pixmap w = 188, h = 150
#
$MODULE LOGO
Po 0 0 0 15 00000000 00000000 ~~
Li LOGO
T0 0 2800 600 600 0 120 N I 21 "G***"
T1 0 -2800 600 600 0 120 N I 21 "LOGO"
DP 0 0 0 0 13 1 21
Dl 3133 2500
Dl 2933 2500
Dl 2933 2266
Dl 2933 -2267
Dl -2933 -2267
Dl -2933 2266
Dl 2933 2266
Dl 2933 2500
Dl -3133 2500
Dl -3133 -2500
Dl 3133 -2500
Dl 3133 2500
Dl 3133 2500
DP 0 0 0 0 274 1 21
Dl 2900 2233
Dl 2642 2233
Dl 2642 1674
Dl 2640 1666
Dl 2606 1639
Dl 2573 1584
Dl 2515 1513
Dl 2453 1481
Dl 2388 1444
Dl 2359 1366
Dl 2357 1355
Dl 2344 1250
Dl 2339 1354
Dl 2305 1460
Dl 2250 1513
Dl 2190 1567
Dl 2167 1615
Dl 2138 1657
Dl 2092 1676
Dl 2039 1687
Dl 2050 1692
Dl 2089 1695
Dl 2158 1726
Dl 2183 1766
Dl 2229 1837
Dl 2269 1867
Dl 2321 1929
Dl 2339 2026
Dl 2344 2150
Dl 2357 2025
Dl 2374 1944
Dl 2397 1902
Dl 2403 1900
Dl 2444 1878
Dl 2511 1822
Dl 2552 1783
Dl 2613 1717
Dl 2642 1674
Dl 2642 2233
Dl 0 2233
Dl -550 2233
Dl -550 -1722
Dl -690 -1728
Dl -789 -1742
Dl -839 -1776
Dl -849 -1795
Dl -892 -1856
Dl -948 -1894
Dl -1015 -1949
Dl -1043 -2007
Dl -1054 -2059
Dl -1059 -2047
Dl -1062 -2000
Dl -1096 -1917
Dl -1140 -1883
Dl -1203 -1838
Dl -1228 -1800
Dl -1229 -1773
Dl -1197 -1792
Dl -1177 -1809
Dl -1110 -1859
Dl -1076 -1855
Dl -1067 -1800
Dl -1074 -1764
Dl -1105 -1744
Dl -1176 -1735
Dl -1272 -1734
Dl -1376 -1731
Dl -1443 -1724
Dl -1459 -1715
Dl -1418 -1704
Dl -1331 -1697
Dl -1253 -1696
Dl -1147 -1694
Dl -1091 -1682
Dl -1070 -1655
Dl -1067 -1615
Dl -1075 -1550
Dl -1107 -1541
Dl -1170 -1586
Dl -1177 -1592
Dl -1223 -1627
Dl -1232 -1615
Dl -1228 -1600
Dl -1187 -1548
Dl -1140 -1518
Dl -1080 -1473
Dl -1061 -1434
Dl -1055 -1434
Dl -1047 -1487
Dl -1042 -1542
Dl -1031 -1638
Dl -1011 -1685
Dl -970 -1700
Dl -948 -1700
Dl -883 -1682
Dl -871 -1636
Dl -912 -1576
Dl -941 -1552
Dl -982 -1516
Dl -977 -1500
Dl -917 -1527
Dl -860 -1586
Dl -834 -1649
Dl -833 -1651
Dl -802 -1686
Dl -709 -1708
Dl -692 -1709
Dl -550 -1722
Dl -550 2233
Dl -713 2233
Dl -713 1690
Dl -731 1680
Dl -743 1676
Dl -807 1643
Dl -881 1583
Dl -883 1580
Dl -947 1525
Dl -996 1500
Dl -999 1500
Dl -1022 1470
Dl -1037 1397
Dl -1039 1375
Dl -1043 1297
Dl -1047 1283
Dl -1054 1330
Dl -1058 1357
Dl -1099 1468
Dl -1181 1573
Dl -1285 1650
Dl -1359 1676
Dl -1450 1690
Dl -1361 1695
Dl -1278 1723
Dl -1250 1767
Dl -1207 1835
Dl -1148 1888
Dl -1080 1964
Dl -1062 2028
Dl -1057 2116
Dl -1044 2033
Dl -1003 1952
Dl -932 1893
Dl -859 1830
Dl -833 1768
Dl -811 1711
Dl -758 1696
Dl -713 1690
Dl -713 2233
Dl -1950 2233
Dl -1950 -345
Dl -2060 -358
Dl -2159 -392
Dl -2208 -454
Dl -2263 -523
Dl -2321 -554
Dl -2389 -603
Dl -2410 -662
Dl -2424 -750
Dl -2429 -659
Dl -2442 -592
Dl -2464 -567
Dl -2517 -542
Dl -2571 -487
Dl -2600 -430
Dl -2600 -424
Dl -2585 -419
Dl -2548 -460
Dl -2490 -522
Dl -2451 -523
Dl -2434 -464
Dl -2433 -450
Dl -2438 -405
Dl -2461 -379
Dl -2518 -367
Dl -2625 -362
Dl -2642 -362
Dl -2734 -357
Dl -2768 -351
Dl -2739 -344
Dl -2732 -343
Dl -2629 -312
Dl -2582 -259
Dl -2537 -197
Dl -2500 -173
Dl -2472 -171
Dl -2492 -204
Dl -2508 -223
Dl -2558 -290
Dl -2555 -325
Dl -2500 -334
Dl -2462 -326
Dl -2442 -293
Dl -2434 -217
Dl -2433 -145
Dl -2430 -47
Dl -2422 14
Dl -2414 24
Dl -2402 -18
Dl -2396 -104
Dl -2395 -165
Dl -2393 -265
Dl -2380 -315
Dl -2348 -332
Dl -2315 -334
Dl -2250 -325
Dl -2240 -294
Dl -2285 -231
Dl -2292 -223
Dl -2327 -178
Dl -2314 -169
Dl -2300 -173
Dl -2248 -213
Dl -2217 -261
Dl -2167 -317
Dl -2075 -339
Dl -2067 -339
Dl -1950 -345
Dl -1950 2233
Dl -2900 2233
Dl -2900 1966
Dl -2900 1700
Dl -2769 1700
Dl -2677 1708
Dl -2630 1739
Dl -2616 1768
Dl -2570 1835
Dl -2516 1873
Dl -2445 1939
Dl -2424 2012
Dl -2411 2116
Dl -2406 2016
Dl -2378 1923
Dl -2325 1882
Dl -2252 1826
Dl -2217 1775
Dl -2167 1714
Dl -2117 1695
Dl -2072 1690
Dl -2090 1683
Dl -2121 1677
Dl -2187 1637
Dl -2228 1581
Dl -2269 1520
Dl -2305 1500
Dl -2318 1518
Dl -2289 1560
Dl -2241 1625
Dl -2249 1657
Dl -2314 1666
Dl -2357 1662
Dl -2381 1640
Dl -2392 1584
Dl -2396 1481
Dl -2396 1445
Dl -2399 1330
Dl -2407 1244
Dl -2416 1206
Dl -2427 1223
Dl -2433 1288
Dl -2433 1312
Dl -2463 1438
Dl -2542 1551
Dl -2651 1632
Dl -2775 1666
Dl -2782 1666
Dl -2900 1666
Dl -2900 -284
Dl -2900 -2234
Dl 0 -2234
Dl 2900 -2234
Dl 2900 0
Dl 2900 2233
Dl 2900 2233
DP 0 0 0 0 12 1 21
Dl -2433 1783
Dl -2446 1851
Dl -2483 1858
Dl -2545 1805
Dl -2593 1741
Dl -2585 1709
Dl -2519 1700
Dl -2517 1700
Dl -2453 1713
Dl -2434 1767
Dl -2433 1783
Dl -2433 1783
DP 0 0 0 0 12 1 21
Dl -2238 1735
Dl -2268 1802
Dl -2319 1858
Dl -2369 1859
Dl -2398 1808
Dl -2400 1783
Dl -2386 1719
Dl -2332 1700
Dl -2317 1700
Dl -2251 1706
Dl -2238 1735
Dl -2238 1735
DP 0 0 0 0 13 1 21
Dl -2433 1582
Dl -2447 1646
Dl -2500 1666
Dl -2516 1666
Dl -2575 1655
Dl -2579 1616
Dl -2579 1615
Dl -2534 1558
Dl -2496 1531
Dl -2450 1516
Dl -2435 1549
Dl -2433 1582
Dl -2433 1582
DP 0 0 0 0 11 1 21
Dl 2333 1783
Dl 2329 1850
Dl 2308 1857
Dl 2259 1810
Dl 2255 1805
Dl 2207 1740
Dl 2214 1708
Dl 2267 1700
Dl 2319 1719
Dl 2333 1783
Dl 2333 1783
DP 0 0 0 0 13 1 21
Dl 2549 1738
Dl 2545 1750
Dl 2501 1805
Dl 2432 1852
Dl 2385 1866
Dl 2371 1838
Dl 2367 1783
Dl 2377 1723
Dl 2424 1701
Dl 2465 1700
Dl 2534 1708
Dl 2549 1738
Dl 2549 1738
DP 0 0 0 0 12 1 21
Dl 2333 1583
Dl 2318 1648
Dl 2267 1666
Dl 2212 1653
Dl 2200 1635
Dl 2220 1592
Dl 2265 1538
Dl 2309 1502
Dl 2319 1500
Dl 2330 1528
Dl 2333 1583
Dl 2333 1583
DP 0 0 0 0 13 1 21
Dl 2559 1624
Dl 2550 1656
Dl 2480 1666
Dl 2467 1666
Dl 2395 1657
Dl 2369 1619
Dl 2367 1583
Dl 2385 1516
Dl 2433 1504
Dl 2500 1548
Dl 2511 1560
Dl 2559 1624
Dl 2559 1624
DP 0 0 0 0 13 1 21
Dl -1067 1800
Dl -1072 1876
Dl -1094 1893
Dl -1145 1854
Dl -1167 1833
Dl -1224 1760
Dl -1221 1716
Dl -1158 1700
Dl -1150 1700
Dl -1091 1710
Dl -1069 1756
Dl -1067 1800
Dl -1067 1800
DP 0 0 0 0 13 1 21
Dl -870 1770
Dl -912 1840
Dl -919 1847
Dl -983 1894
Dl -1021 1880
Dl -1033 1804
Dl -1033 1800
Dl -1025 1728
Dl -986 1702
Dl -950 1700
Dl -883 1719
Dl -870 1770
Dl -870 1770
DP 0 0 0 0 11 1 21
Dl -1067 1600
Dl -1090 1655
Dl -1133 1666
Dl -1188 1655
Dl -1200 1640
Dl -1176 1591
Dl -1126 1546
Dl -1093 1533
Dl -1072 1561
Dl -1067 1600
Dl -1067 1600
DP 0 0 0 0 11 1 21
Dl -874 1614
Dl -880 1650
Dl -946 1666
Dl -950 1666
Dl -1016 1651
Dl -1033 1600
Dl -1026 1546
Dl -994 1538
Dl -931 1567
Dl -874 1614
Dl -874 1614
DP 0 0 0 0 12 1 21
Dl -2212 -390
Dl -2227 -370
Dl -2296 -367
Dl -2369 -375
Dl -2397 -410
Dl -2400 -453
Dl -2382 -516
Dl -2337 -527
Dl -2276 -486
Dl -2242 -442
Dl -2212 -390
Dl -2212 -390
DP 0 0 0 0 12 1 21
Dl -878 -1757
Dl -925 -1735
Dl -947 -1734
Dl -1012 -1746
Dl -1033 -1797
Dl -1033 -1821
Dl -1029 -1882
Dl -1002 -1885
Dl -960 -1860
Dl -891 -1800
Dl -878 -1757
Dl -878 -1757
$EndMODULE LOGO
$EndLIBRARY
