PCBNEW-LibModule-V1  Jo 28 iun 2012 13:25:42 +0300
# encoding utf-8
$INDEX
LT-rayex-relay
$EndINDEX
$MODULE LT-rayex-relay
Po 0 0 0 15 4FEC30A3 00000000 ~~
Li LT-rayex-relay
Sc 00000000
AR LT-rayex-relay
Op 0 0 0
T0 2205 1496 600 600 0 120 N V 21 N "LT-rayex-relay"
T1 354 -472 600 600 0 120 N V 21 N "VAL**"
DS -3268 -3110 -3268 4252 150 21
DS -3268 4252 6299 4252 150 21
DS 6299 4252 6299 -2953 150 21
DS 6299 -2953 6299 -3110 150 21
DS 6299 -3110 -3268 -3110 150 21
$PAD
Sh "1" C 787 787 0 0 1800
Dr 394 0 0
At STD N 00E0FFFF
Ne 0 ""
Po 2914 -2000
$EndPAD
$PAD
Sh "2" C 787 787 0 0 1800
Dr 394 0 0
At STD N 00E0FFFF
Ne 0 ""
Po 4914 0
$EndPAD
$PAD
Sh "3" C 787 787 0 0 1800
Dr 394 0 0
At STD N 00E0FFFF
Ne 0 ""
Po 4914 3000
$EndPAD
$PAD
Sh "4" C 787 787 0 0 1800
Dr 394 0 0
At STD N 00E0FFFF
Ne 0 ""
Po 2914 3000
$EndPAD
$PAD
Sh "5" C 787 787 0 0 1800
Dr 394 0 0
At STD N 00E0FFFF
Ne 0 ""
Po -2086 3000
$EndPAD
$EndMODULE  LT-rayex-relay
$EndLIBRARY
