PCBNEW-LibModule-V1  Mi 18 apr 2012 13:06:02 +0300
# encoding utf-8
$INDEX
ABMM2
$EndINDEX
$MODULE ABMM2
Po 0 0 0 15 4F8E9205 00000000 ~~
Li ABMM2
Sc 00000000
AR /4F882B4C
Op 0 0 0
T0 0 -591 118 118 0 20 N V 21 N "X1"
T1 0 669 118 118 0 20 N V 21 N "8M"
DS -315 0 -866 0 150 21
DS -866 0 -866 236 150 21
DS 276 0 866 0 150 21
DS 866 0 866 -236 150 21
DS 236 -315 236 276 150 21
DS -276 -315 -276 276 150 21
DS -79 236 39 236 150 21
DS 39 236 39 -236 150 21
DS 39 -236 -79 -236 150 21
DS -79 -236 -79 197 150 21
DC -1063 551 -1024 591 150 21
DS -1417 -945 1417 -945 150 21
DS 1417 -945 1417 945 150 21
DS 1417 945 -1417 945 150 21
DS -1417 945 -1417 -945 150 21
$PAD
Sh "1" R 709 551 0 0 0
Dr 0 0 0
At SMD N 00888000
Ne 1 "N-000050"
Po -866 472
$EndPAD
$PAD
Sh "3" R 709 551 0 0 0
Dr 0 0 0
At SMD N 00888000
Ne 0 ""
Po 866 472
$EndPAD
$PAD
Sh "4" R 709 551 0 0 0
Dr 0 0 0
At SMD N 00888000
Ne 0 ""
Po -866 -472
$EndPAD
$PAD
Sh "2" R 709 551 0 0 0
Dr 0 0 0
At SMD N 00888000
Ne 2 "N-000052"
Po 866 -472
$EndPAD
$EndMODULE  ABMM2
$EndLIBRARY
